premier_main,cylinder,scraped_time,power,color,energy,url,year,km,seller,marque,finition,contact,location,doors,gear_box,color_inside,model,type,price
,: 1968 Cm3,2016-02-09 20:45:15.455102,: 170 CV - 125 kW,: Noir,: Diesel,http://www.luxauto.lu/fr/occasion/audi-tt-20-tdi-170-s-line-quattro.html?id=757878,: 11-2009,: 72.900 km,VENDEUR PROFESSIONNEL,Audi,Quattro,":,00352.584384","18, Zone artisanale Um Woeller,L-4410 Soleuvre",: 3,: Manuelle,: Noir,TT,2.0 Tdi,: 22.900 €
,: 1910 Cm3,2016-02-09 20:45:16.022730,: 116 CV - 85 kW,: Noir,: Diesel,http://www.luxauto.lu/fr/occasion/alfa-romeo-147-19-jtdm-115-distinctive.html?id=768508,: 09-2004,: 235.000 km,VENDEUR PROFESSIONNEL,Alfa-Romeo,Distinctive,":,0033.6.27014036","170, route de Kayl,L-3514 Dudelange",: 5,: Manuelle,: Beige,147,1.9 JTDM,: 2.490 €
,: 1910 Cm3,2016-02-09 20:45:16.478363,: 170 CV - 125 kW,: Rouge,: Diesel,http://www.luxauto.lu/fr/occasion/alfa-romeo-147-19-jtd-170-ducati-corse.html?id=766063,: 06-2008,: 163.000 km,VENDEUR PRIVÉ,Alfa-Romeo,Corse,":,00352.691.701268",Pétange,: 5,: Manuelle,: Noir,147,1.9 JTD,: 6.200 €
,: 1910 Cm3,2016-02-09 20:45:16.756785,: 150 CV - 110 kW,: Noir,: Diesel,http://www.luxauto.lu/fr/occasion/alfa-romeo-147-19-jtd-150-q2.html?id=764744,: 04-2008,: 133.000 km,VENDEUR PRIVÉ,Alfa-Romeo,Q2,":,0032.499.126268",B-6762 Saint-Mard,: 3,: Manuelle,: Noir,147,1.9 JTD,: 8.000 €
,: 1910 Cm3,2016-02-09 20:45:17.016857,: 150 CV - 110 kW,: Or,: Diesel,http://www.luxauto.lu/fr/occasion/alfa-romeo-147-19-jtd-150.html?id=764562,: 06-2005,: 200.000 km,VENDEUR PRIVÉ,Alfa-Romeo,150,":,00352.691.128512",Luxembourg,: 5,: Manuelle,: Noir,147,1.9 JTD,: 4.000 €
,: 1910 Cm3,2016-02-09 20:45:17.338889,: 140 CV - 103 kW,: Gris foncé,: Diesel,http://www.luxauto.lu/fr/occasion/alfa-romeo-147-19-jtd-140.html?id=770927,: 01-2003,: 165.000 km,VENDEUR PRIVÉ,Alfa-Romeo,140,":,0033.6.62926396",F-57970 Stuckange,: 3,: Manuelle,: Gris foncé,147,1.9 JTD,: 3.200 €
,: 1910 Cm3,2016-02-09 20:45:17.814029,: 120 CV - 88 kW,: Gris,: Diesel,http://www.luxauto.lu/fr/occasion/alfa-romeo-147-19-jtd-120.html?id=768994,: 08-2008,: 130.000 km,VENDEUR PROFESSIONNEL,Alfa-Romeo,120,":,00352.28779790","8, rue de Peppange,L-3378 Livange",: 5,: Manuelle,: ,147,1.9 JTD,: 4.990 €
,: 1910 Cm3,2016-02-09 20:45:18.139661,: 120 CV - 88 kW,: Gris foncé,: Diesel,http://www.luxauto.lu/fr/occasion/alfa-romeo-147-19-jtd-120.html?id=767139,: 09-2006,: 119.000 km,VENDEUR PROFESSIONNEL,Alfa-Romeo,120,":,00352.691.707017","20, rue Joseph Kieffer,L-4176 Esch-sur-Alzette",: 4,: Manuelle,: Noir,147,1.9 JTD,: 3.200 €
,: 1598 Cm3,2016-02-09 20:45:18.474012,: 120 CV - 88 kW,: Noir,: Essence,http://www.luxauto.lu/fr/occasion/alfa-romeo-147-16-ts-distinctive.html?id=734446,: 07-2008,: 80.200 km,VENDEUR PRIVÉ,Alfa-Romeo,Distinctive,":,00352.691.952230","5, Rue Dr. Nicolas Dominique Schmit,L-5620 Mondorf-les-bains",: 5,: Manuelle,: Noir,147,1.6 TS,: 8.500 €
,: 1598 Cm3,2016-02-09 20:45:18.625578,: 120 CV - 88 kW,: Gris,: Essence,http://www.luxauto.lu/fr/occasion/alfa-romeo-147-16-ts.html?id=770581,: 12-2001,: 85.000 km,VENDEUR PRIVÉ,Alfa-Romeo,,":,00352.661.923438",Sanem,: 3,: Manuelle,: ,147,1.6 TS,: 3.500 €
,: 1598 Cm3,2016-02-09 20:45:18.899525,: 120 CV - 88 kW,: Gris,: Essence,http://www.luxauto.lu/fr/occasion/alfa-romeo-147-16-ts.html?id=769943,: 05-2008,: 100.000 km,VENDEUR PRIVÉ,Alfa-Romeo,,":,00352.621.226548",Solevre,: 5,: Manuelle,: Rouge,147,1.6 TS,: 5.500 €
,: 1598 Cm3,2016-02-09 20:45:19.141919,: 120 CV - 88 kW,: Bleu,: Essence,http://www.luxauto.lu/fr/occasion/alfa-romeo-147-16-ts.html?id=693634,: 05-2003,: 173.500 km,VENDEUR PROFESSIONNEL,Alfa-Romeo,,":,00352.510628","214a, rte. de Luxembourg,L-3515 Dudelange",: 5,: Manuelle,: ,147,1.6 TS,: 3.500 €
,: 400 Cm3,2016-02-09 20:45:19.458736,:  CV - 0 kW,: Rouge,: Diesel,http://www.luxauto.lu/fr/occasion/aixam-coupe-400-d-s.html?id=770325,: 12-2014,: 5.500 km,VENDEUR PROFESSIONNEL,Aixam,S,":,00352.32032933","rue d'Ettelbrück,L-7590 Beringen",: 3,: Automatique,: ,Coupé,400 D,: 9.500 €
,: 7485 Cm3,2016-02-09 20:45:19.729503,: 402 CV - 296 kW,: ,: Essence,http://www.luxauto.lu/fr/occasion/ac-cobra-pilgrim-75-v8.html?id=722237,: 02-1966,: 7.900 km,VENDEUR PROFESSIONNEL,AC,,":,0049.6561.963334","Südring 43,D-54634 Bitburg",: 2,: Manuelle,: ,Cobra,7.5 V8,: 67.700 €
,: 7000 Cm3,2016-02-09 20:45:20.179113,: 515 CV - 379 kW,: Gris,: Essence,http://www.luxauto.lu/fr/occasion/ac-cobra-427-70-superformance-mk3.html?id=728541,: 01-1965,: 20.000 km,VENDEUR PROFESSIONNEL,AC,MK3,":,0033.3.83334334","41, avenue du Général de Gaulle,F-54280 Seichamps",: 2,: Manuelle,: Noir,Cobra,7.0 Superformance,: 125.000 €
,: 5690 Cm3,2016-02-09 20:45:20.434058,: 350 CV - 257 kW,: Bleu,: Essence,http://www.luxauto.lu/fr/occasion/ac-cobra-427-57-v8.html?id=746164,: 04-1972,: 14.000 km,VENDEUR PROFESSIONNEL,AC,,":,00352.26483910","1, rue Lankelz,L-4205 Esch-sur-Alzette",: 2,: Manuelle,: Beige,Cobra,5.7 V8,: 59.900 €
,: 5400 Cm3,2016-02-09 20:45:20.654951,: 450 CV - 331 kW,: Bleu foncé,: Essence,http://www.luxauto.lu/fr/occasion/ac-cobra-289-shelby-fia-csx-7000.html?id=697199,: 00-1966,: 1 km,VENDEUR PROFESSIONNEL,AC,7000,":,00352.691.295526","44, Route de la Sûre,L-9390 Reisdorf",: 2,: Manuelle,: Noir,Cobra,Shelby FIA,: 179.500 €
,: 5400 Cm3,2016-02-09 20:45:20.917840,: 450 CV - 331 kW,: Bleu clair,: Essence,http://www.luxauto.lu/fr/occasion/ac-cobra-289-54-v8-50th-anniversary.html?id=737158,: 01-1964,: 150 km,VENDEUR PROFESSIONNEL,AC,Anniversary,":,00352.691.295526","44, Route de la Sûre,L-9390 Reisdorf",: 2,: Manuelle,: Noir,Cobra,5.4 V8,: 289.000 €
,: 4949 Cm3,2016-02-09 20:45:21.228553,: 224 CV - 165 kW,: Bleu clair,: Essence,http://www.luxauto.lu/fr/occasion/ac-cobra-289-49-v8.html?id=728527,: 06-1992,: 32.500 km,VENDEUR PROFESSIONNEL,AC,,":,00352.559591","95, Rue des Bruyères,L-1274 Howald",: 2,: Manuelle,: Noir,Cobra,4.9 V8,: 65.900 €
,: 3500 Cm3,2016-02-09 20:45:21.492241,: 170 CV - 125 kW,: Bleu,: Essence,http://www.luxauto.lu/fr/occasion/ac-cobra-289-35.html?id=758789,: 01-1977,: 9.000 km,VENDEUR PRIVÉ,AC,,":,00352.661.720602",Larochette,: 2,: Manuelle,: Noir,Cobra,3.5,: 42.000 €
,: 5000 Cm3,2016-02-09 20:45:22.010066,: 412 CV - 303 kW,: Gris,: Essence,http://www.luxauto.lu/fr/occasion/ac-cobra--50-v8-backdraft.html?id=769241,: 05-2014,: 731 km,VENDEUR PROFESSIONNEL,AC,Backdraft,":,00352.548085","55-57, rue Basse,L-3813 Schifflange",: 2,: Manuelle,: Noir,Cobra,5.0 V8,: 118.000 €
,: 1910 Cm3,2016-02-09 20:45:22.327915,: 140 CV - 103 kW,: Gris clair,: Diesel,http://www.luxauto.lu/fr/occasion/alfa-romeo-147-19-jtdm-140.html?id=760506&page=1,: 09-2004,: 109.000 km,VENDEUR PROFESSIONNEL,Alfa-Romeo,140,":,00352.621.491580",L- ,: 5,: Manuelle,: Rouge,147,1.9 JTDm,: 4.999 €
,: 1910 Cm3,2016-02-09 20:45:22.939767,: 116 CV - 85 kW,: Bleu foncé,: Diesel,http://www.luxauto.lu/fr/occasion/alfa-romeo-159-sportwagon-19-jtdm-115-progression.html?id=644020&page=1,: 06-2010,: 104.305 km,VENDEUR PROFESSIONNEL,Alfa-Romeo,Progression,":,0032.63.242670","342, Route de Bastogne,B-6700 Arlon",: 5,: Manuelle,: Noir,159,Sportwagon 1.9,: 12.500 €
,: 1910 Cm3,2016-02-09 20:45:23.209703,: 150 CV - 110 kW,: Gris clair,: Diesel,http://www.luxauto.lu/fr/occasion/alfa-romeo-159-sportwagon-19-jtd-150.html?id=769721&page=1,: 06-2008,: 99.000 km,VENDEUR PROFESSIONNEL,Alfa-Romeo,150,":,00352.621.285035","18, rue de la Chapelle,L-3617 Kayl",: 5,: Manuelle,: Noir,159,Sportwagon 1.9,: 8.990 €
,: 1910 Cm3,2016-02-09 20:45:23.526775,: 150 CV - 110 kW,: Bronze,: Diesel,http://www.luxauto.lu/fr/occasion/alfa-romeo-159-sportwagon-19-jtd-150.html?id=767985&page=1,: 06-2006,: 176.000 km,VENDEUR PRIVÉ,Alfa-Romeo,150,":,00352.691.763764",Echternach,: 5,: Manuelle,: Beige,159,Sportwagon 1.9,: 6.900 €
,: 1910 Cm3,2016-02-09 20:45:23.868277,: 150 CV - 110 kW,: Gris,: Diesel,http://www.luxauto.lu/fr/occasion/alfa-romeo-159-sportwagon-19-jtd-150.html?id=748485&page=1,: 09-2007,: 155.000 km,VENDEUR PRIVÉ,Alfa-Romeo,150,":,00352.621.343277",Mersch,: 5,: Manuelle,: ,159,Sportwagon 1.9,: 7.800 €
,: 2387 Cm3,2016-02-09 20:45:24.310506,: 200 CV - 147 kW,: Beige,: Diesel,http://www.luxauto.lu/fr/occasion/alfa-romeo-159-24-jtd-200-auto.html?id=768274&page=1,: 08-2009,: 114.225 km,VENDEUR PRIVÉ,Alfa-Romeo,Auto.,":,00352.621.256644","6, Rue du Fort Dumoulin,L-1425 Luxembourg",: 4,: Automatique,: Beige,159,2.4 JTD,: 9.490 €
,: 1910 Cm3,2016-02-09 20:45:24.569056,: 150 CV - 110 kW,: Gris,: Diesel,http://www.luxauto.lu/fr/occasion/alfa-romeo-159-19-jtdm-150.html?id=765468&page=1,: 02-2009,: 82.800 km,VENDEUR PRIVÉ,Alfa-Romeo,150,":,00352.621.165131",Luxembourg,: 4,: Manuelle,: Beige,159,1.9 JTDm,: 10.950 €
,: 1910 Cm3,2016-02-09 20:45:24.881308,: 150 CV - 110 kW,: Noir,: Diesel,http://www.luxauto.lu/fr/occasion/alfa-romeo-159-19-jtd-150-ti.html?id=767257&page=1,: 05-2008,: 148.850 km,VENDEUR PROFESSIONNEL,Alfa-Romeo,Ti,":,00352.838072","20, rue d'Arlon,L-9155 Grosbous",: 4,: Manuelle,: Noir,159,1.9 JTD,: 8.500 €
,: 1910 Cm3,2016-02-09 20:45:25.098779,: 150 CV - 110 kW,: Gris,: Diesel,http://www.luxauto.lu/fr/occasion/alfa-romeo-159-19-jtd-150.html?id=769868&page=1,: 05-2006,: 191.000 km,VENDEUR PRIVÉ,Alfa-Romeo,150,":,00352.621.227800",Steinsel,: 4,: Manuelle,: ,159,1.9 JTD,: 5.900 €
,: 1910 Cm3,2016-02-09 20:45:25.352145,: 150 CV - 110 kW,: Noir,: Diesel,http://www.luxauto.lu/fr/occasion/alfa-romeo-159-19-jtd-150.html?id=767847&page=1,: 07-2007,: 134.000 km,VENDEUR PRIVÉ,Alfa-Romeo,150,":,00352.621.333165",B-6780 Messancy,: 4,: Manuelle,: Rouge,159,1.9 JTD,: 4.500 €
,: 3179 Cm3,2016-02-09 20:45:25.749739,: 250 CV - 184 kW,: Argent,: Essence,http://www.luxauto.lu/fr/occasion/alfa-romeo-156-sportwagon-32-v6-gta.html?id=768663&page=1,: 05-2003,: 195.000 km,VENDEUR PRIVÉ,Alfa-Romeo,GTA,":,00352.621.229698","46, Route d'Arlon,L-8008 Strassen",: 5,: Manuelle,: Noir,156,Sportwagon 3.2,: 8.000 €
,: 2387 Cm3,2016-02-09 20:45:26.138514,: 175 CV - 129 kW,: Blanc,: Diesel,http://www.luxauto.lu/fr/occasion/alfa-romeo-156-sportwagon-24-jtd-175.html?id=769196&page=1,: 02-2004,: 170.000 km,VENDEUR PRIVÉ,Alfa-Romeo,175,":,00352.691.897474",Helmsange,: 5,: Manuelle,: Beige,156,Sportwagon 2.4,: 3.000 €
,: 2387 Cm3,2016-02-09 20:45:26.507020,: 140 CV - 103 kW,: ,: Diesel,http://www.luxauto.lu/fr/occasion/alfa-romeo-156-sportwagon-24-jtd-140.html?id=767550&page=1,: 12-2001,: 230.000 km,VENDEUR PRIVÉ,Alfa-Romeo,140,":,00352.661.923438",Sanem,: 5,: Manuelle,: ,156,Sportwagon 2.4,: 2.600 €
,: 1910 Cm3,2016-02-09 20:45:26.824143,: 140 CV - 103 kW,: Noir,: Diesel,http://www.luxauto.lu/fr/occasion/alfa-romeo-156-sportwagon-19-jtd-140.html?id=766900&page=1,: 06-2004,: 181.000 km,VENDEUR PRIVÉ,Alfa-Romeo,140,":,00352.621.427790",Luxembourg,: 5,: Manuelle,: Noir,156,Sportwagon 1.9,: 2.499 €
,: 1747 Cm3,2016-02-09 20:45:26.930366,: 144 CV - 106 kW,: Noir,: Essence,http://www.luxauto.lu/fr/occasion/alfa-romeo-156-sportwagon-18-ts.html?id=770307&page=1,: 10-2001,: 154.000 km,VENDEUR PRIVÉ,Alfa-Romeo,TS,":,00352.661.923438",Sanem,: 5,: Manuelle,: ,156,Sportwagon 1.8,: 2.600 €
,: 1910 Cm3,2016-02-09 20:45:27.330327,: 150 CV - 110 kW,: Vert foncé,: Diesel,http://www.luxauto.lu/fr/occasion/alfa-romeo-156-crosswagon-19-jtd-150-q4.html?id=626132&page=1,: 01-2006,: 211.150 km,VENDEUR PROFESSIONNEL,Alfa-Romeo,Q4,":,0032.63.242670","342, Route de Bastogne,B-6700 Arlon",: 5,: Manuelle,: Beige,156,Crosswagon 1.9,: 7.500 €
,: 3179 Cm3,2016-02-09 20:45:27.756961,: 250 CV - 184 kW,: Gris foncé,: Essence,http://www.luxauto.lu/fr/occasion/alfa-romeo-156-32-v6-gta-selespeed.html?id=769153&page=1,: 08-2005,: 14.500 km,VENDEUR PRIVÉ,Alfa-Romeo,Selespeed,":,00352.661.870523",Steinsel,: 5,: Séquentielle,: Noir,156,3.2 V6,: 22.500 €
,: 1970 Cm3,2016-02-09 20:45:27.971961,: 155 CV - 114 kW,: Gris foncé,: Essence,http://www.luxauto.lu/fr/occasion/alfa-romeo-156-20-ts.html?id=766724&page=1,: 03-1998,: 135.000 km,VENDEUR PRIVÉ,Alfa-Romeo,,":,0033.6.66427884",F-57360 Amneville,: 4,: Manuelle,: ,156,2.0 TS,: 1.800 €
,: 1910 Cm3,2016-02-09 20:45:28.252344,: 140 CV - 103 kW,: Noir,: Diesel,http://www.luxauto.lu/fr/occasion/alfa-romeo-156-19-jtdm-140.html?id=764561&page=1,: 03-2004,: 119.850 km,VENDEUR PRIVÉ,Alfa-Romeo,140,":,00352.621.232519",Esch-sur-alzette,: 4,: Manuelle,: Anthracite,156,1.9 JTDm,: 5.400 €
,: 1747 Cm3,2016-02-09 20:45:28.578229,: 144 CV - 106 kW,: Vert,: Essence,http://www.luxauto.lu/fr/occasion/alfa-romeo-156-18-ts.html?id=763029&page=1,: 04-1998,: 188.000 km,VENDEUR PRIVÉ,Alfa-Romeo,,":,00352.671.523320",Troisvierges,: 4,: Manuelle,: ,156,1.8 TS,: 500 €
,: 1956 Cm3,2016-02-09 20:45:28.894156,: 136 CV - 100 kW,: Gris foncé,: Diesel,http://www.luxauto.lu/fr/occasion/alfa-romeo-159-sportwagon-19-jtdm-136.html?id=754819&page=2,: 06-2011,: 81.310 km,VENDEUR PROFESSIONNEL,Alfa-Romeo,136,":,00352.4396962975","Zone d'Activités Bourmicht,L-8070 Bertrange",: 5,: Manuelle,: ,159,Sportwagon 1.9,: 11.990 €
,: 1368 Cm3,2016-02-09 20:45:29.506097,: 116 CV - 85 kW,: Argent,: Essence,http://www.luxauto.lu/fr/occasion/alfa-romeo-giulietta-14-tb.html?id=763885&page=2,: 02-2011,: 42.000 km,VENDEUR PRIVÉ,Alfa-Romeo,,":,0033.6.71200041",F-54400 Longwy,: 5,: Manuelle,: Noir,Giulietta,1.4 TB,: 11.500 €
,: 1368 Cm3,2016-02-09 20:45:29.834053,: 120 CV - 88 kW,: Gris,: Essence,http://www.luxauto.lu/fr/occasion/alfa-romeo-giulietta-14-multiair-turismo.html?id=766433&page=2,: 12-2010,: 82.000 km,VENDEUR PRIVÉ,Alfa-Romeo,Turismo,":,00352.691.298900",Luxembourg,: 5,: Manuelle,: Noir,Giulietta,1.4 Multiair,: 10.000 €
,: 1300 Cm3,2016-02-09 20:45:30.108507,: 79 CV - 58 kW,: Blanc,: Essence,http://www.luxauto.lu/fr/occasion/alfa-romeo-giulia-1300-super.html?id=764672&page=2,: 01-1973,: 78.000 km,VENDEUR PRIVÉ,Alfa-Romeo,,":,00352.691.485963",Heisdorf,: 5,: Manuelle,: Noir,Giulia,1300 Super,: 15.000 €
,: 1956 Cm3,2016-02-09 20:45:30.507935,: 170 CV - 125 kW,: Anthracite,: Diesel,http://www.luxauto.lu/fr/occasion/alfa-romeo-brera-20-jtdm-170.html?id=759629&page=2,: 08-2009,: 57.470 km,VENDEUR PROFESSIONNEL,Alfa-Romeo,170,":,00352.621.322810","BP 9,L-9006 Grosbous",: 3,: Manuelle,: Beige,Brera,2.0 JTDm,: 18.000 €
,: 1956 Cm3,2016-02-09 20:45:30.952905,: 163 CV - 120 kW,: Noir,: Diesel,http://www.luxauto.lu/fr/occasion/alfa-romeo-brera-20-jtdm-163.html?id=706890&page=2,: 06-2009,: 92.252 km,VENDEUR PROFESSIONNEL,Alfa-Romeo,163,":,00352.621.322810","BP 9,L-9006 Grosbous",: 3,: Manuelle,: Rouge,Brera,2.0 JTDm,: 13.650 €
,: 1742 Cm3,2016-02-09 20:45:31.397485,: 241 CV - 177 kW,: Blanc,: Essence,http://www.luxauto.lu/fr/occasion/alfa-romeo-4c-spider-1750-tct.html?id=744109&page=2,: 09-2015,: 10 km,VENDEUR PROFESSIONNEL,Alfa-Romeo,TCT,":,00352.4396962975","Zone d'Activités Bourmicht,L-8070 Bertrange",: 2,: Séquentielle,: Noir,4C,Spider 1750,: 81.000 €
,: 1742 Cm3,2016-02-09 20:45:31.748921,: 241 CV - 177 kW,: Jaune,: Essence,http://www.luxauto.lu/fr/occasion/alfa-romeo-4c-spider-1750-tct.html?id=743524&page=2,: 08-2015,: 10 km,VENDEUR PROFESSIONNEL,Alfa-Romeo,TCT,":,00352.4396962975","Zone d'Activités Bourmicht,L-8070 Bertrange",: 2,: Séquentielle,: Noir,4C,Spider 1750,: 77.300 €
,: 1742 Cm3,2016-02-09 20:45:31.921035,: 241 CV - 177 kW,: Rouge,: Essence,http://www.luxauto.lu/fr/occasion/alfa-romeo-4c-1750-tct.html?id=753118&page=2,: 05-2015,: 1.400 km,VENDEUR PROFESSIONNEL,Alfa-Romeo,,":,00352.261764611","75, route de Longwy (1er étage),L-8080 Bertrange",: 2,: Séquentielle,: ,4C,1750 TCT,: 61.500 €
,: 1742 Cm3,2016-02-09 20:45:32.218505,: 241 CV - 177 kW,: Rouge,: Essence,http://www.luxauto.lu/fr/occasion/alfa-romeo-4c-1750-tct.html?id=751183&page=2,: 02-2014,: 3.050 km,VENDEUR PROFESSIONNEL,Alfa-Romeo,,":,00352.510628","214a, rte. de Luxembourg,L-3515 Dudelange",: 2,: Séquentielle,: ,4C,1750 TCT,: 69.900 €
,: 1742 Cm3,2016-02-09 20:45:32.499265,: 241 CV - 177 kW,: Blanc,: Essence,http://www.luxauto.lu/fr/occasion/alfa-romeo-4c-1750-tct.html?id=749680&page=2,: 04-2014,: 2.500 km,VENDEUR PROFESSIONNEL,Alfa-Romeo,,":,00352.510628","214a, rte. de Luxembourg,L-3515 Dudelange",: 2,: Séquentielle,: ,4C,1750 TCT,: 64.900 €
,: 1742 Cm3,2016-02-09 20:45:32.833956,: 241 CV - 177 kW,: Noir,: Essence,http://www.luxauto.lu/fr/occasion/alfa-romeo-4c-1750-tct.html?id=726799&page=2,: 06-2015,: 50 km,VENDEUR PROFESSIONNEL,Alfa-Romeo,,":,00352.311553-36","242, Route d'Arlon,L-8010 Strassen",: 2,: Automatique,: Rouge,4C,1750 TCT,: 66.980 €
,: 1351 Cm3,2016-02-09 20:45:33.084112,: 90 CV - 66 kW,: Vert foncé,: Essence,http://www.luxauto.lu/fr/occasion/alfa-romeo-33-13.html?id=757311&page=2,: 04-1990,: 68.000 km,VENDEUR PROFESSIONNEL,Alfa-Romeo,,":,00352.788222","Zone Artisanale et Commerciale,L-6131 Junglinster",: 4,: Manuelle,: Noir,33,1.3,: 6.500 €
,: 2492 Cm3,2016-02-09 20:45:33.434720,: 188 CV - 138 kW,: Gris clair,: Essence,http://www.luxauto.lu/fr/occasion/alfa-romeo-166-25-v6.html?id=757391&page=2,: 06-2001,: 54.828 km,VENDEUR PROFESSIONNEL,Alfa-Romeo,,":,00352.788222","Zone Artisanale et Commerciale,L-6131 Junglinster",: 4,: Manuelle,: Noir,166,2.5 V6,: 7.500 €
,: 2387 Cm3,2016-02-09 20:45:33.757734,: 209 CV - 154 kW,: Noir,: Diesel,http://www.luxauto.lu/fr/occasion/alfa-romeo-159-sportwagon-24-jtdm-210-ti.html?id=749014&page=2,: 04-2010,: 118.000 km,VENDEUR PRIVÉ,Alfa-Romeo,Ti,":,00352.6.61302995",Dudelange,: 5,: Manuelle,: Brun,159,Sportwagon 2.4,: 12.500 €
,: 2387 Cm3,2016-02-09 20:45:34.138718,: 200 CV - 147 kW,: Gris,: Diesel,http://www.luxauto.lu/fr/occasion/alfa-romeo-159-sportwagon-24-jtd-200-progression.html?id=750138&page=2,: 07-2007,: 201.000 km,VENDEUR PROFESSIONNEL,Alfa-Romeo,Progression,":,0049.6867.9126818","53a, Triererstrasse,D-66706 Perl",: 5,: Manuelle,: Noir,159,Sportwagon 2.4,: 6.500 €
,: 2387 Cm3,2016-02-09 20:45:34.322523,: 200 CV - 147 kW,: Gris foncé,: Diesel,http://www.luxauto.lu/fr/occasion/alfa-romeo-159-sportwagon-24-jtd-200-auto.html?id=710455&page=2,: 06-2009,: 119.000 km,VENDEUR PROFESSIONNEL,Alfa-Romeo,Auto.,":,00352.661.750731","60, Route d'Arlon,L-8008 Strassen",: 5,: Automatique,: Beige,159,Sportwagon 2.4,: 11.850 €
,: 1956 Cm3,2016-02-09 20:45:34.631400,: 170 CV - 125 kW,: Rouge,: Diesel,http://www.luxauto.lu/fr/occasion/alfa-romeo-159-sportwagon-20-jtdm-170-ti.html?id=758505&page=2,: 03-2012,: 72.000 km,VENDEUR PRIVÉ,Alfa-Romeo,Ti,":,00352.621.184622",Roodt-sur-Syre,: 5,: Manuelle,: Noir,159,Sportwagon 2.0,: 15.800 €
,: 1956 Cm3,2016-02-09 20:45:34.946733,: 170 CV - 125 kW,: Blanc,: Diesel,http://www.luxauto.lu/fr/occasion/alfa-romeo-159-sportwagon-20-jtdm-170.html?id=763681&page=2,: 07-2010,: 114.754 km,VENDEUR PROFESSIONNEL,Alfa-Romeo,170,":,0049.681.49580","Käthe Kollwitz Str. 15,D-66115 Saarbrücken",: 5,: Manuelle,: Noir,159,Sportwagon 2.0,: 12.620 €
,: 1956 Cm3,2016-02-09 20:45:35.467614,: 170 CV - 125 kW,: Gris foncé,: Diesel,http://www.luxauto.lu/fr/occasion/alfa-romeo-159-sportwagon-20-jtd-170-ti.html?id=765412&page=2,: 07-2011,: 96.000 km,VENDEUR PROFESSIONNEL,Alfa-Romeo,Ti,":,0033.6.88039717","1, rue Eugène Delacroix,F-57310 Bousse",: 5,: Manuelle,: Noir,159,Sportwagon 2.0,: 13.990 €
,: 1598 Cm3,2016-02-09 20:45:35.950744,: 105 CV - 77 kW,: Blanc,: Diesel,http://www.luxauto.lu/fr/occasion/alfa-romeo-giulietta-16-jtdm-105.html?id=649042&page=3,: 06-2011,: 170.000 km,VENDEUR PROFESSIONNEL,Alfa-Romeo,105,":,00352.26361640","65, rue Robert Schuman,L-5751 Frisange",: 5,: Manuelle,: Noir,Giulietta,1.6 JTDm,: 7.990 €
,: 1742 Cm3,2016-02-09 20:45:36.763129,: 235 CV - 173 kW,: Gris,: Essence,http://www.luxauto.lu/fr/occasion/alfa-romeo-giulietta-1750-tbi-quadrifoglio-verde-maserati-edition.html?id=764353&page=3,: 02-2013,: 55.000 km,VENDEUR PRIVÉ,Alfa-Romeo,Edition,":,00352.691.847778",Brouch,: 4,: Manuelle,: Brun,Giulietta,1750 TBi,: 23.000 €
,: 1742 Cm3,2016-02-09 20:45:37.270211,: 235 CV - 173 kW,: Blanc,: Essence,http://www.luxauto.lu/fr/occasion/alfa-romeo-giulietta-1750-tbi-quadrifoglio-verde.html?id=769090&page=3,: 03-2012,: 39.100 km,VENDEUR PRIVÉ,Alfa-Romeo,Verde,":,00352.661.242237",Bivange,: 5,: Manuelle,: Noir,Giulietta,1750 TBi,: 16.600 €
,: 1742 Cm3,2016-02-09 20:45:37.546367,: 235 CV - 173 kW,: Rouge,: Essence,http://www.luxauto.lu/fr/occasion/alfa-romeo-giulietta-1750-tbi-quadrifoglio-verde.html?id=763936&page=3,: 04-2011,: 80.000 km,VENDEUR PRIVÉ,Alfa-Romeo,Verde,":,00352.691.459585",Bofferdange,: 4,: Manuelle,: Noir,Giulietta,1750 TBi,: 14.900 €
,: 1742 Cm3,2016-02-09 20:45:37.856581,: 235 CV - 173 kW,: Blanc,: Essence,http://www.luxauto.lu/fr/occasion/alfa-romeo-giulietta-1750-tbi-quadrifoglio-verde.html?id=757256&page=3,: 11-2010,: 58.500 km,VENDEUR PRIVÉ,Alfa-Romeo,Verde,":,00352.621.305449",Leudelange,: 5,: Manuelle,: Noir,Giulietta,1750 TBi,: 16.700 €
,: 1598 Cm3,2016-02-09 20:45:38.269723,: 105 CV - 77 kW,: Blanc,: Diesel,http://www.luxauto.lu/fr/occasion/alfa-romeo-giulietta-16-jtdm-105-sprint.html?id=756528&page=3,: 05-2015,: 10 km,VENDEUR PROFESSIONNEL,Alfa-Romeo,Sprint,":,00352.4396962975","Zone d'Activités Bourmicht,L-8070 Bertrange",: 5,: Manuelle,: Noir,Giulietta,1.6 JTDm,: 22.800 €
,: 1598 Cm3,2016-02-09 20:45:38.859500,: 105 CV - 77 kW,: Gris foncé,: Diesel,http://www.luxauto.lu/fr/occasion/alfa-romeo-giulietta-16-jtdm-105-progression.html?id=751529&page=3,: 09-2014,: 16.900 km,VENDEUR PROFESSIONNEL,Alfa-Romeo,Progression,":,00352.78959433","42, rue Hiel,L-6131 Junglinster",: 5,: Manuelle,: Rouge,Giulietta,1.6 JTDm,: 16.900 €
,: 1600 Cm3,2016-02-09 20:45:39.061079,: 105 CV - 77 kW,: Noir,: Diesel,http://www.luxauto.lu/fr/occasion/alfa-romeo-giulietta-16-jtdm-105-distinctive-pack-sport.html?id=748895&page=3,: 00-,: 10 km,VENDEUR PROFESSIONNEL,Alfa-Romeo,Sport,":,00352.4396962975","Zone d'Activités Bourmicht,L-8070 Bertrange",: 5,: Manuelle,: Noir,Giulietta,1.6 JTDm,: 21.850 €
,: 1598 Cm3,2016-02-09 20:45:39.778484,: 105 CV - 77 kW,: Rouge,: Diesel,http://www.luxauto.lu/fr/occasion/alfa-romeo-giulietta-16-jtdm-105-distinctive.html?id=769789&page=3,: 02-2015,: 20.000 km,VENDEUR PROFESSIONNEL,Alfa-Romeo,Distinctive,":,0032.63.242670","342, Route de Bastogne,B-6700 Arlon",: 5,: Manuelle,: Noir,Giulietta,1.6 JTDm,: 21.500 €
,: 1598 Cm3,2016-02-09 20:45:40.065675,: 105 CV - 77 kW,: Noir,: Diesel,http://www.luxauto.lu/fr/occasion/alfa-romeo-giulietta-16-jtdm-105-distinctive.html?id=765213&page=3,: 05-2012,: 81.000 km,VENDEUR PRIVÉ,Alfa-Romeo,Distinctive,":,0033.6.67575304",F-57710 Aumetz,: 5,: Manuelle,: Noir,Giulietta,1.6 JTDm,: 12.990 €
,: 1598 Cm3,2016-02-09 20:45:40.302946,: 105 CV - 77 kW,: Noir,: Diesel,http://www.luxauto.lu/fr/occasion/alfa-romeo-giulietta-16-jtdm-105-distinctive.html?id=761307&page=3,: 09-2011,: 82.219 km,VENDEUR PROFESSIONNEL,Alfa-Romeo,Distinctive,":,0032.63.242670","342, Route de Bastogne,B-6700 Arlon",: 5,: Manuelle,: Beige,Giulietta,1.6 JTDm,: 12.500 €
,: 1598 Cm3,2016-02-09 20:45:40.450386,: 105 CV - 77 kW,: Gris,: Diesel,http://www.luxauto.lu/fr/occasion/alfa-romeo-giulietta-16-jtdm-105-distinctive.html?id=759944&page=3,: 08-2015,: 100 km,VENDEUR PROFESSIONNEL,Alfa-Romeo,Distinctive,":,00352.26959595","5, Z.A.C. Happerfeld,L-9806 Hosingen",: 5,: Manuelle,: ,Giulietta,1.6 JTDm,: 19.970 €
,: 1598 Cm3,2016-02-09 20:45:40.533169,: 105 CV - 77 kW,: Gris foncé,: Diesel,http://www.luxauto.lu/fr/occasion/alfa-romeo-giulietta-16-jtdm-105-distinctive.html?id=756913&page=3,: 10-2011,: 75.400 km,VENDEUR PROFESSIONNEL,Alfa-Romeo,Distinctive,":,00352.309341","1b, Route d'Arlon,L-8310 Capellen",: 5,: Manuelle,: Brun,Giulietta,1.6 JTDm,: 12.690 €
,: 1598 Cm3,2016-02-09 20:45:40.628396,: 105 CV - 77 kW,: Gris,: Diesel,http://www.luxauto.lu/fr/occasion/alfa-romeo-giulietta-16-jtdm-105-distinctive.html?id=748872&page=3,: 05-2013,: 37.300 km,VENDEUR PROFESSIONNEL,Alfa-Romeo,Distinctive,":,00352.26383805","56, Rue de Cessange,L-1320 Luxembourg",: 5,: Manuelle,: Noir,Giulietta,1.6 JTDm,: 13.900 €
,: 1598 Cm3,2016-02-09 20:45:41.240239,: 105 CV - 77 kW,: Gris,: Diesel,http://www.luxauto.lu/fr/occasion/alfa-romeo-giulietta-16-jtdm-105-distinctive.html?id=747370&page=3,: 08-2015,: 10 km,VENDEUR PROFESSIONNEL,Alfa-Romeo,Distinctive,":,00352.398945","Rue de Koerich, 60,L-8437 Steinfort",: 5,: Manuelle,: Noir,Giulietta,1.6 JTDm,: 19.950 €
,: 1598 Cm3,2016-02-09 20:45:41.420281,: 105 CV - 77 kW,: Noir,: Diesel,http://www.luxauto.lu/fr/occasion/alfa-romeo-giulietta-16-jtdm-105-distinctive.html?id=738835&page=3,: 10-2010,: 120.300 km,VENDEUR PROFESSIONNEL,Alfa-Romeo,Distinctive,":,00352.510628","214a, rte. de Luxembourg,L-3515 Dudelange",: 5,: Manuelle,: ,Giulietta,1.6 JTDm,: 10.900 €
,: 1598 Cm3,2016-02-09 20:45:41.532557,: 105 CV - 77 kW,: Gris,: Diesel,http://www.luxauto.lu/fr/occasion/alfa-romeo-giulietta-16-jtdm-105-distinctive.html?id=710959&page=3,: 00-,:  km,VENDEUR PROFESSIONNEL,Alfa-Romeo,Distinctive,":,00352.691.911888","55, Val Fleuri,L-1526 Luxembourg",: 5,: Manuelle,: Bronze,Giulietta,1.6 JTDm,: 21.000 €
,: 1598 Cm3,2016-02-09 20:45:41.776683,: 105 CV - 77 kW,: Rouge,: Diesel,http://www.luxauto.lu/fr/occasion/alfa-romeo-giulietta-16-jtdm-105.html?id=769940&page=3,: 06-2014,: 15.200 km,VENDEUR PROFESSIONNEL,Alfa-Romeo,105,":,00352.49,66,40","35b, rue des 3 Cantons,L-3961 Ehlange",: 5,: Manuelle,: Noir,Giulietta,1.6 JTDm,: 15.900 €
,: 1598 Cm3,2016-02-09 20:45:42.098056,: 105 CV - 77 kW,: Gris foncé,: Diesel,http://www.luxauto.lu/fr/occasion/alfa-romeo-giulietta-16-jtdm-105.html?id=766645&page=3,: 04-2012,: 101.000 km,VENDEUR PROFESSIONNEL,Alfa-Romeo,105,":,00352.691.134005","408, route de Longwy (BÂt: EP Véhicules),L-4832 Rodange",: 5,: Manuelle,: Noir,Giulietta,1.6 JTDm,: 10.690 €
,: 1598 Cm3,2016-02-09 20:45:42.732076,: 105 CV - 77 kW,: Gris foncé,: Diesel,http://www.luxauto.lu/fr/occasion/alfa-romeo-giulietta-16-jtdm-105.html?id=761537&page=3,: 11-2012,: 53.100 km,VENDEUR PRIVÉ,Alfa-Romeo,105,":,00352.691.175307",Luxembourg,: 5,: Manuelle,: Noir,Giulietta,1.6 JTDm,: 12.900 €
,: 1956 Cm3,2016-02-09 20:45:42.968068,: 136 CV - 100 kW,: Gris,: Diesel,http://www.luxauto.lu/fr/occasion/alfa-romeo-giulietta-20-jtdm-136-distinctive.html?id=756576&page=4,: 01-2013,: 59.600 km,VENDEUR PROFESSIONNEL,Alfa-Romeo,Distinctive,":,0032.71393287","143, rue de la Vallée,B-6200 Châtelineau",: 5,: Manuelle,: ,Giulietta,2.0 JTDm,: 13.990 €
,: 1956 Cm3,2016-02-09 20:45:43.276756,: 170 CV - 125 kW,: Noir,: Diesel,http://www.luxauto.lu/fr/occasion/alfa-romeo-giulietta-20-jtdm-170-progression.html?id=711368&page=4,: 12-2010,: 98.610 km,VENDEUR PROFESSIONNEL,Alfa-Romeo,Progression,":,00352.810541","1, Rue du Viaduc,L-9147 Erpeldange/Ettelbrück",: 5,: Manuelle,: Noir,Giulietta,2.0 JTDm,: 13.200 €
,: 1956 Cm3,2016-02-09 20:45:43.745600,: 170 CV - 125 kW,: Gris,: Diesel,http://www.luxauto.lu/fr/occasion/alfa-romeo-giulietta-20-jtdm-170-distinctive.html?id=757970&page=4,: 08-2011,: 82.541 km,VENDEUR PROFESSIONNEL,Alfa-Romeo,Distinctive,":,0033.3.82585274","Zone Artisanale rue des Ateliers,F-57330 Hettange-Grande",: 5,: Manuelle,: Noir,Giulietta,2.0 JTDm,: 12.480 €
,: 1956 Cm3,2016-02-09 20:45:44.011396,: 170 CV - 125 kW,: Bleu,: Diesel,http://www.luxauto.lu/fr/occasion/alfa-romeo-giulietta-20-jtdm-170.html?id=688135&page=4,: 05-2012,: 121.350 km,VENDEUR PROFESSIONNEL,Alfa-Romeo,170,":,0032.63.242670","342, Route de Bastogne,B-6700 Arlon",: 5,: Manuelle,: Noir,Giulietta,2.0 JTDm,: 12.900 €
,: 1956 Cm3,2016-02-09 20:45:44.222861,: 150 CV - 110 kW,: Noir,: Diesel,http://www.luxauto.lu/fr/occasion/alfa-romeo-giulietta-20-jtdm-150-distinctive.html?id=764821&page=4,: 03-2014,: 33.500 km,VENDEUR PROFESSIONNEL,Alfa-Romeo,Distinctive,":,00352.78959433","42, rue Hiel,L-6131 Junglinster",: 5,: Manuelle,: Brun,Giulietta,2.0 JTDm,: 19.550 €
,: 1956 Cm3,2016-02-09 20:45:45.145536,: 150 CV - 110 kW,: Noir,: Diesel,http://www.luxauto.lu/fr/occasion/alfa-romeo-giulietta-20-jtdm-150-distinctive.html?id=762200&page=4,: 02-2014,: 62.000 km,VENDEUR PROFESSIONNEL,Alfa-Romeo,Distinctive,":,00352.594533","168, Route de Niederkorn,L-4991 Sanem",: 5,: Manuelle,: Gris foncé,Giulietta,2.0 JTDm,: 14.900 €
,: 1956 Cm3,2016-02-09 20:45:45.758679,: 150 CV - 110 kW,: Rouge,: Diesel,http://www.luxauto.lu/fr/occasion/alfa-romeo-giulietta-20-jtdm-150-distinctive.html?id=754211&page=4,: 04-2014,: 33.000 km,VENDEUR PRIVÉ,Alfa-Romeo,Distinctive,":,00352.661.580270",Differdange,: 5,: Manuelle,: Noir,Giulietta,2.0 JTDm,: 19.000 €
,: 1956 Cm3,2016-02-09 20:45:45.891685,: 140 CV - 103 kW,: Gris,: Diesel,http://www.luxauto.lu/fr/occasion/alfa-romeo-giulietta-20-jtdm-140-sport.html?id=757174&page=4,: 08-2012,: 83.400 km,VENDEUR PROFESSIONNEL,Alfa-Romeo,Sport,":,00352.584384","18, Zone artisanale Um Woeller,L-4410 Soleuvre",: 5,: Manuelle,: Noir,Giulietta,2.0 JTDm,: 14.900 €
,: 1956 Cm3,2016-02-09 20:45:46.485604,: 140 CV - 103 kW,: Anthracite,: Diesel,http://www.luxauto.lu/fr/occasion/alfa-romeo-giulietta-20-jtdm-140-distinctive-pack-sport.html?id=755045&page=4,: 07-2012,: 79.500 km,VENDEUR PRIVÉ,Alfa-Romeo,Sport,":,00352.621.152410",Luxembourg,: 5,: Manuelle,: Noir,Giulietta,2.0 JTDm,: 14.500 €
,: 1956 Cm3,2016-02-09 20:45:47.002387,: 170 CV - 125 kW,: Rouge,: Diesel,http://www.luxauto.lu/fr/occasion/alfa-romeo-giulietta-20-jtdm-170-tct.html?id=770948&page=4,: 01-2012,: 86.000 km,VENDEUR PRIVÉ,Alfa-Romeo,TCT,":,0033.6.63681745",F-57180 Terville,: 5,: Automatique,: Noir,Giulietta,2.0 JTDm,: 17.000 €
,: 1956 Cm3,2016-02-09 20:45:47.246947,: 170 CV - 125 kW,: Rouge,: Diesel,http://www.luxauto.lu/fr/occasion/alfa-romeo-giulietta-20-jtdm-170-tct.html?id=769844&page=4,: 05-2012,: 77.000 km,VENDEUR PROFESSIONNEL,Alfa-Romeo,TCT,":,00352.49,66,40","35b, rue des 3 Cantons,L-3961 Ehlange",: 5,: Automatique,: Beige,Giulietta,2.0 JTDm,: 12.900 €
,: 1956 Cm3,2016-02-09 20:45:47.574407,: 170 CV - 125 kW,: Gris,: Diesel,http://www.luxauto.lu/fr/occasion/alfa-romeo-giulietta-20-jtdm-170-sportiva.html?id=764687&page=4,: 02-2013,: 44.900 km,VENDEUR PROFESSIONNEL,Alfa-Romeo,Sportiva,":,00352.621.359.272","8, Rue Jean-Pierre Molitor,L-5670 Altwies",: 5,: Manuelle,: Noir,Giulietta,2.0 JTDm,: 16.990 €
,: 1970 Cm3,2016-02-09 20:45:49.196031,: 150 CV - 110 kW,: Gris foncé,: Essence,http://www.luxauto.lu/fr/occasion/alfa-romeo-gtv-20-ts.html?id=767260&page=4,: 11-2003,: 49.000 km,VENDEUR PRIVÉ,Alfa-Romeo,,":,00352.265866647",F-54135 Mexy,: 2,: Manuelle,: Rouge,GTV,2.0 TS,: 8.000 €
,: 1996 Cm3,2016-02-09 20:45:49.485103,: 205 CV - 151 kW,: Gris clair,: Essence,http://www.luxauto.lu/fr/occasion/alfa-romeo-gtv-20-v6-turbo.html?id=771008&page=4,: 08-1996,: 188.000 km,VENDEUR PRIVÉ,Alfa-Romeo,Turbo,":,0033.6.07976167",F-57050 Plappeville,: 3,: Manuelle,: Rouge,GTV,2.0 V6,: 2.800 €
,: 1948 Cm3,2016-02-09 20:45:49.957767,: 122 CV - 90 kW,: Rouge,: Essence,http://www.luxauto.lu/fr/occasion/alfa-romeo-gtv-20-grand-prix.html?id=765210&page=4,: 01-1981,: 122.293 km,VENDEUR PRIVÉ,Alfa-Romeo,Prix,":,00352.621.394415","5, Op der Hobuch,L-5832 Sandweiler",: 2,: Manuelle,: Noir,GTV,2.0 Grand,: 8.500 €
,: 1970 Cm3,2016-02-09 20:45:50.340359,: 150 CV - 110 kW,: Rouge,: Essence,http://www.luxauto.lu/fr/occasion/alfa-romeo-gtv-20.html?id=755747&page=4,: 05-1983,: 61.650 km,VENDEUR PROFESSIONNEL,Alfa-Romeo,,":,00352.4396962975","Zone d'Activités Bourmicht,L-8070 Bertrange",: 2,: Manuelle,: ,GTV,2.0,: 22.000 €
,: 1910 Cm3,2016-02-09 20:45:50.956225,: 150 CV - 110 kW,: Bleu,: Diesel,http://www.luxauto.lu/fr/occasion/alfa-romeo-gt-19-jtdm-150.html?id=771061&page=4,: 03-2006,: 179.000 km,VENDEUR PRIVÉ,Alfa-Romeo,150,":,00352.691.640779",Luxembourg,: 2,: Manuelle,: Beige,GT,1.9 JTDm,: 3.900 €
,: 1290 Cm3,2016-02-09 20:45:51.140249,: 88 CV - 65 kW,: Bleu,: Essence,http://www.luxauto.lu/fr/occasion/alfa-romeo-gt-junior-1300.html?id=728659&page=4,: 09-1971,: 47.520 km,VENDEUR PROFESSIONNEL,Alfa-Romeo,,":,0033.3.82246197","1b, rue Jean Racine,F-54190 Tiercelet",: 2,: Manuelle,: ,GT,1300,: 17.900 €
,: 1910 Cm3,2016-02-09 20:45:51.515056,: 150 CV - 110 kW,: Rouge,: Diesel,http://www.luxauto.lu/fr/occasion/alfa-romeo-gt-19-jtd-150.html?id=770525&page=4,: 12-2008,: 42.700 km,VENDEUR PRIVÉ,Alfa-Romeo,150,":,00352.691.842079",Howald,: 3,: Manuelle,: Beige,GT,1.9 JTD,: 11.870 €
,: 1910 Cm3,2016-02-09 20:45:52.964818,: 150 CV - 110 kW,: Rouge,: Diesel,http://www.luxauto.lu/fr/occasion/alfa-romeo-gt-19-jtd-150.html?id=769906&page=4,: 12-2008,: 42.700 km,VENDEUR PROFESSIONNEL,Alfa-Romeo,150,":,00352.26322829","1a, rue Principale,L-8540 Ospern",: 2,: Manuelle,: Beige,GT,1.9 JTD,: 11.870 €
,: 1400 Cm3,2016-02-09 20:45:53.318134,:  CV - 0 kW,: Rouge,: Essence,http://www.luxauto.lu/fr/occasion/alfa-romeo-mito-14-progression.html?id=710924&page=5,: 00-,:  km,VENDEUR PROFESSIONNEL,Alfa-Romeo,,":,00352.691.911888","55, Val Fleuri,L-1526 Luxembourg",: 3,: Manuelle,: Noir,Mito,1.4 Progression,: 11.900 €
,: 1248 Cm3,2016-02-09 20:45:53.545383,: 84 CV - 62 kW,: Blanc,: Diesel,http://www.luxauto.lu/fr/occasion/alfa-romeo-mito-13-jtdm-85-distinctive.html?id=760913&page=5,: 07-2011,: 59.550 km,VENDEUR PROFESSIONNEL,Alfa-Romeo,Distinctive,":,00352.661.123456","1a, Rue du Commerce,L-3895 Foetz",: 3,: Manuelle,: ,Mito,1.3 JTDm,: 9.900 €
,: 1248 Cm3,2016-02-09 20:45:53.889007,: 95 CV - 70 kW,: Beige,: Diesel,http://www.luxauto.lu/fr/occasion/alfa-romeo-mito-13-jtdm-95-progression.html?id=742103&page=5,: 12-2011,: 132.500 km,VENDEUR PROFESSIONNEL,Alfa-Romeo,Progression,":,0032.81.401975","814, Chaussée de Marche,B-5100 Namur",: 3,: Manuelle,: Noir,Mito,1.3 JTDm,: 7.900 €
,: 1248 Cm3,2016-02-09 20:45:54.672636,: 95 CV - 70 kW,: Beige,: Diesel,http://www.luxauto.lu/fr/occasion/alfa-romeo-mito-13-jtdm-95-progression.html?id=739168&page=5,: 01-2010,: 77.122 km,VENDEUR PROFESSIONNEL,Alfa-Romeo,Progression,":,0032.63.242670","342, Route de Bastogne,B-6700 Arlon",: 3,: Manuelle,: Gris,Mito,1.3 JTDm,: 8.900 €
,: 1248 Cm3,2016-02-09 20:45:54.925391,: 95 CV - 70 kW,: Rouge,: Diesel,http://www.luxauto.lu/fr/occasion/alfa-romeo-mito-13-jtdm-95-junior.html?id=757510&page=5,: 01-2010,: 57.000 km,VENDEUR PROFESSIONNEL,Alfa-Romeo,Junior,":,0032.61.216245","88, Rue de Wiltz,B-6600 Bastogne",: 3,: Manuelle,: ,Mito,1.3 JTDm,: 8.700 €
,: 1248 Cm3,2016-02-09 20:45:55.091462,: 95 CV - 70 kW,: Blanc,: Diesel,http://www.luxauto.lu/fr/occasion/alfa-romeo-mito-13-jtdm-95-distinctive.html?id=771345&page=5,: 02-2013,: 75.453 km,VENDEUR PROFESSIONNEL,Alfa-Romeo,Distinctive,":,00352.26322829","1a, rue Principale,L-8540 Ospern",: 3,: Manuelle,: Noir,Mito,1.3 JTDm,: 11.880 €
,: 1248 Cm3,2016-02-09 20:45:55.452776,: 95 CV - 70 kW,: Anthracite,: Diesel,http://www.luxauto.lu/fr/occasion/alfa-romeo-mito-13-jtdm-95-distinctive.html?id=770575&page=5,: 04-2010,: 65.200 km,VENDEUR PRIVÉ,Alfa-Romeo,Distinctive,":,00352.621.230234","113, Route de Longwy,L-4831 Rodange",: 3,: Manuelle,: Noir,Mito,1.3 JTDm,: 8.800 €
,: 1248 Cm3,2016-02-09 20:45:55.731554,: 95 CV - 70 kW,: Blanc,: Diesel,http://www.luxauto.lu/fr/occasion/alfa-romeo-mito-13-jtdm-95-distinctive.html?id=769938&page=5,: 02-2013,: 70.000 km,VENDEUR PRIVÉ,Alfa-Romeo,Distinctive,":,00352.621.649859",Nospelt,: 3,: Manuelle,: ,Mito,1.3 JTDm,: 12.700 €
,: 1248 Cm3,2016-02-09 20:45:56.012822,: 95 CV - 70 kW,: Blanc,: Diesel,http://www.luxauto.lu/fr/occasion/alfa-romeo-mito-13-jtdm-95-distinctive.html?id=766550&page=5,: 02-2013,: 75.400 km,VENDEUR PROFESSIONNEL,Alfa-Romeo,Distinctive,":,00352.398945","Rue de Koerich, 60,L-8437 Steinfort",: 3,: Manuelle,: Noir,Mito,1.3 JTDm,: 11.480 €
,: 1248 Cm3,2016-02-09 20:45:56.239234,: 95 CV - 70 kW,: Noir,: Diesel,http://www.luxauto.lu/fr/occasion/alfa-romeo-mito-13-jtdm-95.html?id=752642&page=5,: 01-2011,: 72.000 km,VENDEUR PROFESSIONNEL,Alfa-Romeo,95,":,00352.26652607","21, Rue Robert Krieps,L-4702 Pétange",: 3,: Manuelle,: Brun,Mito,1.3 JTDm,: 9.900 €
,: 1248 Cm3,2016-02-09 20:45:56.574417,: 95 CV - 70 kW,: Noir,: Diesel,http://www.luxauto.lu/fr/occasion/alfa-romeo-mito-13-jtdm-95.html?id=737015&page=5,: 03-2010,: 96.218 km,VENDEUR PROFESSIONNEL,Alfa-Romeo,95,":,0032.63.242670","342, Route de Bastogne,B-6700 Arlon",: 3,: Manuelle,: Rouge,Mito,1.3 JTDm,: 8.900 €
,: 1248 Cm3,2016-02-09 20:45:56.874949,: 90 CV - 66 kW,: Blanc,: Diesel,http://www.luxauto.lu/fr/occasion/alfa-romeo-mito-13-jtdm-90.html?id=760773&page=5,: 09-2009,: 85.000 km,VENDEUR PROFESSIONNEL,Alfa-Romeo,90,":,00352.28777742","8, route de Longwy,L-8080 Bertrange",: 3,: Manuelle,: Noir,Mito,1.3 JTDm,: 9.990 €
,: 1248 Cm3,2016-02-09 20:45:57.104021,: 84 CV - 62 kW,: Blanc,: Diesel,http://www.luxauto.lu/fr/occasion/alfa-romeo-mito-13-jtdm-85-eco-junior.html?id=732132&page=5,: 07-2013,: 45.885 km,VENDEUR PROFESSIONNEL,Alfa-Romeo,Junior,":,0049.6332.910610","Saarpfalzstr. 7,D-66482 Zweibrücken",: 3,: Manuelle,: Noir,Mito,1.3 JTDm,: 9.999 €
,: 1248 Cm3,2016-02-09 20:45:57.459175,: 84 CV - 62 kW,: Noir,: Diesel,http://www.luxauto.lu/fr/occasion/alfa-romeo-mito-13-jtdm-85-distinctive.html?id=765623&page=5,: 08-2014,: 41.400 km,VENDEUR PROFESSIONNEL,Alfa-Romeo,Distinctive,":,00352.510628","214a, rte. de Luxembourg,L-3515 Dudelange",: 3,: Manuelle,: Gris foncé,Mito,1.3 JTDm,: 13.900 €
,: 1368 Cm3,2016-02-09 20:45:57.722706,: 170 CV - 125 kW,: Noir,: Essence,http://www.luxauto.lu/fr/occasion/alfa-romeo-mito-14-tb-quadrifoglio-verde.html?id=765437&page=5,: 01-2011,: 63.900 km,VENDEUR PROFESSIONNEL,Alfa-Romeo,Verde,":,00352.570770","44-46, Rue Jos Kieffer,L-4176 Esch-sur-Alzette",: 3,: Manuelle,: Rouge,Mito,1.4 TB,: 12.900 €
,: 1368 Cm3,2016-02-09 20:45:58.284245,: 170 CV - 125 kW,: Blanc,: Essence,http://www.luxauto.lu/fr/occasion/alfa-romeo-mito-14-t-jet-sport.html?id=707110&page=5,: 01-2011,: 69.000 km,VENDEUR PROFESSIONNEL,Alfa-Romeo,Sport,":,00352.5520301","28, rue du Brill,L-3898 Foetz",: 3,: Manuelle,: Anthracite,Mito,1.4 T-Jet,: 13.450 €
,: 1368 Cm3,2016-02-09 20:45:58.835932,: 170 CV - 125 kW,: Blanc,: Essence,http://www.luxauto.lu/fr/occasion/alfa-romeo-mito-14-tb-quadrifoglio-verde-edition-maserati.html?id=770920&page=5,: 03-2011,: 77.000 km,VENDEUR PRIVÉ,Alfa-Romeo,Maserati,":,0032.497.937405",B-6700 Arlon,: 3,: Manuelle,: Noir,Mito,1.4 TB,: 10.500 €
,: 1368 Cm3,2016-02-09 20:45:59.248770,: 170 CV - 125 kW,: Blanc,: Essence,http://www.luxauto.lu/fr/occasion/alfa-romeo-mito-14-tb-quadrifoglio-verde.html?id=770946&page=5,: 03-2011,: 72.000 km,VENDEUR PRIVÉ,Alfa-Romeo,Verde,":,00352.691.367361",Oberkorn,: 3,: Manuelle,: Rouge foncé,Mito,1.4 TB,: 12.500 €
,: 1368 Cm3,2016-02-09 20:45:59.542382,: 170 CV - 125 kW,: Noir,: Essence,http://www.luxauto.lu/fr/occasion/alfa-romeo-mito-14-tb-quadrifoglio-verde.html?id=767348&page=5,: 01-2010,: 77.896 km,VENDEUR PROFESSIONNEL,Alfa-Romeo,Verde,":,0033.3.82246197","1b, rue Jean Racine,F-54190 Tiercelet",: 3,: Manuelle,: ,Mito,1.4 TB,: 10.990 €
,: 1368 Cm3,2016-02-09 20:45:59.841932,: 170 CV - 125 kW,: Noir,: Essence,http://www.luxauto.lu/fr/occasion/alfa-romeo-mito-14-tb-quadrifoglio-verde.html?id=765485&page=5,: 06-2011,: 45.000 km,VENDEUR PRIVÉ,Alfa-Romeo,Verde,":,00352.691.615660",Fouhren,: 3,: Manuelle,: Noir,Mito,1.4 TB,: 12.500 €
,: 1599 Cm3,2016-02-09 20:46:00.164048,: 120 CV - 88 kW,: Gris clair,: Diesel,http://www.luxauto.lu/fr/occasion/alfa-romeo-mito-16-jtdm-120.html?id=763668&page=6,: 09-2010,: 96.000 km,VENDEUR PRIVÉ,Alfa-Romeo,120,":,00352.661.151066",Schouweiler,: 3,: Manuelle,: Noir,Mito,1.6 JTDm,: 8.200 €
,: 2198 Cm3,2016-02-09 20:46:00.505632,: 185 CV - 136 kW,: Rouge,: Essence,http://www.luxauto.lu/fr/occasion/alfa-romeo-spider-22-jts.html?id=768366&page=6,: 07-2007,: 30.000 km,VENDEUR PRIVÉ,Alfa-Romeo,,":,00352.621.250310",Luxembourg,: 2,: Manuelle,: Noir,Spider,2.2 JTS,: 15.000 €
,: 1995 Cm3,2016-02-09 20:46:00.636235,: 125 CV - 92 kW,: Bleu clair,: Essence,http://www.luxauto.lu/fr/occasion/alfa-romeo-spider-20.html?id=765246&page=6,: 02-1983,: 149.000 km,VENDEUR PROFESSIONNEL,Alfa-Romeo,,":,00352.621.161559","Route de Bettembourg, 134,L-5811 Fentange",: 2,: Manuelle,: Bleu foncé,Spider,2.0,: 8.500 €
,: 1948 Cm3,2016-02-09 20:46:00.925175,: 130 CV - 96 kW,: Rouge,: Essence,http://www.luxauto.lu/fr/occasion/alfa-romeo-spider-20.html?id=742745&page=6,: 01-1977,: 153.000 km,VENDEUR PRIVÉ,Alfa-Romeo,,":,00352.621.774782",Uebersyren,: 2,: Manuelle,: Noir,Spider,2.0,: 14.500 €
,: 2000 Cm3,2016-02-09 20:46:01.230351,: 126 CV - 93 kW,: Rouge,: Essence,http://www.luxauto.lu/fr/occasion/alfa-romeo-spider-20.html?id=695821&page=6,: 07-1987,: 106.000 km,VENDEUR PRIVÉ,Alfa-Romeo,,":,00352.661.670082",Luxembourg,: 2,: Manuelle,: Noir,Spider,2.0,: 21.500 €
,: 1290 Cm3,2016-02-09 20:46:01.706243,: 90 CV - 66 kW,: Blanc,: Essence,http://www.luxauto.lu/fr/occasion/alfa-romeo-spider-1300.html?id=734809&page=6,: 01-1971,: 80.271 km,VENDEUR PROFESSIONNEL,Alfa-Romeo,,":,00352.32032933","rue d'Ettelbrück,L-7590 Beringen",: 2,: Manuelle,: ,Spider,1300,: 17.850 €
,: 1747 Cm3,2016-02-09 20:46:01.829525,: 150 CV - 110 kW,: Bleu,: Essence,http://www.luxauto.lu/fr/occasion/alfa-romeo-spider-18-ts.html?id=743202&page=6,: 06-2001,: 76.000 km,VENDEUR PRIVÉ,Alfa-Romeo,,":,00352.621.379704",Junglinster,: 2,: Manuelle,: Noir,Spider,1.8 TS,: 3.200 €
,: 1556 Cm3,2016-02-09 20:46:02.065932,: 110 CV - 81 kW,: Brun,: Essence,http://www.luxauto.lu/fr/occasion/alfa-romeo-spider-16.html?id=737671&page=6,: 04-1979,: 129 km,VENDEUR PROFESSIONNEL,Alfa-Romeo,,":,00352.26322829","1a, rue Principale,L-8540 Ospern",: 2,: Manuelle,: Beige,Spider,1.6,: 18.480 €
,: 1290 Cm3,2016-02-09 20:46:02.383665,: 89 CV - 65 kW,: Noir,: Essence,http://www.luxauto.lu/fr/occasion/alfa-romeo-spider-13-junior.html?id=755748&page=6,: 01-1974,: 53.200 km,VENDEUR PROFESSIONNEL,Alfa-Romeo,,":,00352.4396962975","Zone d'Activités Bourmicht,L-8070 Bertrange",: 2,: Manuelle,: ,Spider,1.3 Junior,: 18.000 €
,: 1599 Cm3,2016-02-09 20:46:02.778954,: 120 CV - 88 kW,: Noir,: Diesel,http://www.luxauto.lu/fr/occasion/alfa-romeo-mito-16-jtdm-120-sportiva.html?id=765164&page=6,: 12-2010,: 143.000 km,VENDEUR PRIVÉ,Alfa-Romeo,Sportiva,":,00352.621.364023",Mamer,: 3,: Manuelle,: Noir,Mito,1.6 JTDm,: 5.950 €
,: 1598 Cm3,2016-02-09 20:46:03.012112,: 120 CV - 88 kW,: Gris,: Diesel,http://www.luxauto.lu/fr/occasion/alfa-romeo-mito-16-jtdm-120-distinctive.html?id=770376&page=6,: 02-2013,: 47.500 km,VENDEUR PRIVÉ,Alfa-Romeo,Distinctive,":,00352.661.564538",Kayl,: 3,: Manuelle,: ,Mito,1.6 JTDm,: 12.900 €
,: 1599 Cm3,2016-02-09 20:46:03.419551,: 120 CV - 88 kW,: Noir,: Diesel,http://www.luxauto.lu/fr/occasion/alfa-romeo-mito-16-jtdm-120.html?id=769793&page=6,: 03-2010,: 87.000 km,VENDEUR PRIVÉ,Alfa-Romeo,120,":,00352.621.314197",Schwebsange,: 3,: Manuelle,: ,Mito,1.6 JTDm,: 9.500 €
,: 1599 Cm3,2016-02-09 20:46:03.620976,: 120 CV - 88 kW,: Gris clair,: Diesel,http://www.luxauto.lu/fr/occasion/alfa-romeo-mito-16-jtdm-120.html?id=769736&page=6,: 03-2009,: 82.000 km,VENDEUR PRIVÉ,Alfa-Romeo,120,":,00352.661.661497",Luxembourg,: 3,: Manuelle,: Gris foncé,Mito,1.6 JTDm,: 7.000 €
,: 5935 Cm3,2016-02-09 20:46:04.257157,: 540 CV - 397 kW,: Gris clair,: Essence,http://www.luxauto.lu/fr/occasion/aston-martin-db9-60-v12-gt-bond-edition-touchtronic.html?id=768239&page=6,: 01-2016,: 50 km,VENDEUR PROFESSIONNEL,Aston-Martin,Touchtronic,":,00352.621.508644","35, rue Jean Bertels,L-1230 Luxembourg",: 2,: Automatique,: Noir,DB9,6.0 V12,: 220.500 €
,: 5935 Cm3,2016-02-09 20:46:04.614794,: 455 CV - 335 kW,: Argent,: Essence,http://www.luxauto.lu/fr/occasion/aston-martin-db9-59-v12-touchtronic.html?id=700803&page=6,: 08-2004,: 76.000 km,VENDEUR PROFESSIONNEL,Aston-Martin,Touchtronic,":,0049.6561.963334","Südring 43,D-54634 Bitburg",: 2,: Automatique,: ,DB9,5.9 V12,: 49.990 €
,: 5935 Cm3,2016-02-09 20:46:05.111493,: 420 CV - 309 kW,: Bleu,: Essence,http://www.luxauto.lu/fr/occasion/aston-martin-db7-vantage-60-v12-auto.html?id=769842&page=6,: 01-2001,: 47.818 km,VENDEUR PROFESSIONNEL,Aston-Martin,Auto.,":,0031.416.751393","Kleiweg 1,N-5145 Waalwijk",: 2,: Automatique,: Beige,DB7,6.0 V12,: 44.500 €
,: 2000 Cm3,2016-02-09 20:46:05.416709,: 213 CV - 157 kW,: Gris foncé,: Diesel,http://www.luxauto.lu/fr/occasion/alpina-d3-touring-20-d-switchtronic.html?id=752315&page=6,: 11-2010,: 118.000 km,VENDEUR PRIVÉ,Alpina,Switchtronic,":,00352.691.564586",Luxembourg,: 5,: Automatique,: Gris,D3,Touring 2.0,: 18.900 €
,: 2966 Cm3,2016-02-09 20:46:05.759993,: 300 CV - 221 kW,: Blanc,: Essence,http://www.luxauto.lu/fr/occasion/alpina-b7-30-turbo.html?id=751208&page=6,: 04-1981,: 135.400 km,VENDEUR PROFESSIONNEL,Alpina,,":,00352.559591","95, Rue des Bruyères,L-1274 Howald",: 2,: Manuelle,: Rouge foncé,B7,3.0 Turbo,: 66.000 €
,: 2979 Cm3,2016-02-09 20:46:06.287336,: 409 CV - 301 kW,: Noir,: Essence,http://www.luxauto.lu/fr/occasion/alpina-b3-touring-30-biturbo-xdrive-switchtronic.html?id=760829&page=6,: 12-2015,: 100 km,VENDEUR PROFESSIONNEL,Alpina,Switchtronic,":,00352.329111-440","21, Rue de la Gare,L-7535 Mersch",: 5,: Automatique,: ,B3,Touring 3.0,: 82.000 €
,: 2979 Cm3,2016-02-09 20:46:06.585644,: 360 CV - 265 kW,: Noir,: Essence,http://www.luxauto.lu/fr/occasion/alpina-b3-30-auto.html?id=748812&page=6,: 03-2008,: 71.000 km,VENDEUR PRIVÉ,Alpina,,":,00352.621.194157",Contern,: 2,: Automatique,: Beige,B3,3.0 Auto.,: 24.500 €
,: 5935 Cm3,2016-02-09 20:46:06.812283,: 476 CV - 350 kW,: Gris foncé,: Essence,http://www.luxauto.lu/fr/occasion/aston-martin-db9-60-v12-touchtronic.html?id=741096&page=7,: 04-2011,: 15.200 km,VENDEUR PROFESSIONNEL,Aston-Martin,Touchtronic,":,00352.273660700","128, route de Thionville,L-2610 Luxembourg",: 2,: Automatique,: Noir,DB9,6.0 V12,: 91.000 €
,: 4735 Cm3,2016-02-09 20:46:07.556090,: 437 CV - 321 kW,: Noir,: Essence,http://www.luxauto.lu/fr/occasion/aston-martin-v8-vantage-s-roadster-47-sp10-sportshift.html?id=720289&page=7,: 00-,: 50 km,VENDEUR PROFESSIONNEL,Aston-Martin,Sportshift,":,00352.273660700","128, route de Thionville,L-2610 Luxembourg",: 2,: Séquentielle,: Noir,V8,Roadster 4.7,: 128.000 €
,: 4735 Cm3,2016-02-09 20:46:07.958763,: 437 CV - 321 kW,: Gris clair,: Essence,http://www.luxauto.lu/fr/occasion/aston-martin-v8-vantage-s-47-sportshift.html?id=720155&page=7,: 04-2011,: 56.000 km,VENDEUR PROFESSIONNEL,Aston-Martin,,":,00352.273660700","128, route de Thionville,L-2610 Luxembourg",: 2,: Séquentielle,: Noir,V8,4.7 Sportshift,: 71.000 €
,: 4735 Cm3,2016-02-09 20:46:08.245401,: 437 CV - 321 kW,: Gris foncé,: Essence,http://www.luxauto.lu/fr/occasion/aston-martin-v8-vantage-s-47-sp10-sportshift.html?id=720284&page=7,: 04-2015,: 11.500 km,VENDEUR PROFESSIONNEL,Aston-Martin,Sportshift,":,00352.273660700","128, route de Thionville,L-2610 Luxembourg",: 2,: Séquentielle,: Noir,V8,4.7 SP10,: 100.000 €
,: 4735 Cm3,2016-02-09 20:46:08.846935,: 436 CV - 321 kW,: Orange,: Essence,http://www.luxauto.lu/fr/occasion/aston-martin-v8-vantage-47-sportshift.html?id=741099&page=7,: 00-,: 250 km,VENDEUR PROFESSIONNEL,Aston-Martin,,":,00352.273660700","128, route de Thionville,L-2610 Luxembourg",: 2,: Séquentielle,: Noir,V8,4.7 Sportshift,: 123.000 €
,: 4735 Cm3,2016-02-09 20:46:09.007111,: 436 CV - 321 kW,: Blanc,: Essence,http://www.luxauto.lu/fr/occasion/aston-martin-v8-vantage-47-n430-sportshift.html?id=741102&page=7,: 00-,: 10 km,VENDEUR PROFESSIONNEL,Aston-Martin,Sportshift,":,00352.273660700","128, route de Thionville,L-2610 Luxembourg",: 2,: Séquentielle,: Noir,V8,4.7 N430,: 129.500 €
,: 4735 Cm3,2016-02-09 20:46:09.224316,: 436 CV - 321 kW,: Vert clair,: Essence,http://www.luxauto.lu/fr/occasion/aston-martin-v8-vantage-47-n430-sportshift.html?id=741101&page=7,: 00-,: 10 km,VENDEUR PROFESSIONNEL,Aston-Martin,Sportshift,":,00352.273660700","128, route de Thionville,L-2610 Luxembourg",: 2,: Séquentielle,: Noir,V8,4.7 N430,: 124.500 €
,: 4735 Cm3,2016-02-09 20:46:09.470412,: 436 CV - 321 kW,: Bleu foncé,: Essence,http://www.luxauto.lu/fr/occasion/aston-martin-v8-vantage-47-n430-sportshift.html?id=741100&page=7,: 00-,: 10 km,VENDEUR PROFESSIONNEL,Aston-Martin,Sportshift,":,00352.273660700","128, route de Thionville,L-2610 Luxembourg",: 2,: Séquentielle,: Noir,V8,4.7 N430,: 129.500 €
,: 4735 Cm3,2016-02-09 20:46:09.844157,: 426 CV - 313 kW,: Blanc,: Essence,http://www.luxauto.lu/fr/occasion/aston-martin-v8-vantage-47-n420.html?id=761243&page=7,: 04-2011,: 49.000 km,VENDEUR PROFESSIONNEL,Aston-Martin,,":,00352.671.204060","ZAE Weiergewan - 5b, rue de l'Etang,L-5326 Contern",: 2,: Manuelle,: Noir,V8,4.7 N420,: 68.200 €
,: 5935 Cm3,2016-02-09 20:46:10.147527,: 573 CV - 421 kW,: Gris clair,: Essence,http://www.luxauto.lu/fr/occasion/aston-martin-v12-vantage-s-roadster-60-v12-sportshift.html?id=755514&page=7,: 11-2015,: 1 km,VENDEUR PROFESSIONNEL,Aston-Martin,Sportshift,":,00352.273660700","128, route de Thionville,L-2610 Luxembourg",: 2,: Séquentielle,: Noir,V12,Roadster 6.0,: 209.500 €
,: 5935 Cm3,2016-02-09 20:46:10.663945,: 573 CV - 421 kW,: Vert,: Essence,http://www.luxauto.lu/fr/occasion/aston-martin-v12-vantage-s-60-v12-sportshift.html?id=747630&page=7,: 00-,: 50 km,VENDEUR PROFESSIONNEL,Aston-Martin,Sportshift,":,00352.273660700","128, route de Thionville,L-2610 Luxembourg",: 2,: Séquentielle,: Gris,V12,6.0 V12,: 208.990 €
,: 5935 Cm3,2016-02-09 20:46:11.036504,: 573 CV - 421 kW,: Blanc,: Essence,http://www.luxauto.lu/fr/occasion/aston-martin-v12-vantage-s-60-v12-sportshift.html?id=614651&page=7,: 00-,: 150 km,VENDEUR PROFESSIONNEL,Aston-Martin,Sportshift,":,00352.273660700","128, route de Thionville,L-2610 Luxembourg",: 2,: Séquentielle,: Noir,V12,6.0 V12,: 174.000 €
,: 5935 Cm3,2016-02-09 20:46:11.327558,: 517 CV - 380 kW,: Gris foncé,: Essence,http://www.luxauto.lu/fr/occasion/aston-martin-v12-vantage-60.html?id=723028&page=7,: 04-2012,: 19.500 km,VENDEUR PROFESSIONNEL,Aston-Martin,,":,00352.621.344300","(sur rdv uniquement),L-6961 Senningen",: 2,: Manuelle,: Brun,V12,6.0,: 119.000 €
,: 5935 Cm3,2016-02-09 20:46:11.907278,: 560 CV - 412 kW,: Anthracite,: Essence,http://www.luxauto.lu/fr/occasion/aston-martin-rapide-s-60-v12-touchtronic.html?id=747631&page=7,: 00-,: 250 km,VENDEUR PROFESSIONNEL,Aston-Martin,Touchtronic,":,00352.273660700","128, route de Thionville,L-2610 Luxembourg",: 4,: Automatique,: Bronze,Rapide,6.0 V12,: 199.500 €
,: 5935 Cm3,2016-02-09 20:46:12.260160,: 476 CV - 350 kW,: Gris,: Essence,http://www.luxauto.lu/fr/occasion/aston-martin-rapide-60-v12-touchtronic.html?id=766564&page=7,: 06-2011,: 55.800 km,VENDEUR PROFESSIONNEL,Aston-Martin,Touchtronic,":,00352.584384","18, Zone artisanale Um Woeller,L-4410 Soleuvre",: 5,: Automatique,: Noir,Rapide,6.0 V12,: 88.900 €
,: 5935 Cm3,2016-02-09 20:46:12.541318,: 476 CV - 350 kW,: Gris foncé,: Essence,http://www.luxauto.lu/fr/occasion/aston-martin-rapide-60-v12-touchtronic.html?id=759301&page=7,: 09-2010,: 43.800 km,VENDEUR PROFESSIONNEL,Aston-Martin,Touchtronic,":,00352.27489055","19/21, route d’Arlon,L-8009 Strassen",: 5,: Automatique,: Noir,Rapide,6.0 V12,: 79.890 €
,: 5935 Cm3,2016-02-09 20:46:12.804115,: 517 CV - 380 kW,: Gris foncé,: Essence,http://www.luxauto.lu/fr/occasion/aston-martin-db9-volante-60-v12-touchtronic.html?id=720154&page=7,: 00-,: 50 km,VENDEUR PROFESSIONNEL,Aston-Martin,Touchtronic,":,00352.273660700","128, route de Thionville,L-2610 Luxembourg",: 2,: Automatique,: Noir,DB9,Volante 6.0,: 195.000 €
,: 5935 Cm3,2016-02-09 20:46:13.109600,: 517 CV - 380 kW,: Noir,: Essence,http://www.luxauto.lu/fr/occasion/aston-martin-db9-volante-60-v12-carbon-edition-touchtronic.html?id=720302&page=7,: 00-,: 50 km,VENDEUR PROFESSIONNEL,Aston-Martin,Touchtronic,":,00352.273660700","128, route de Thionville,L-2610 Luxembourg",: 2,: Automatique,: Noir,DB9,Volante 6.0,: 199.000 €
,: 5935 Cm3,2016-02-09 20:46:13.429078,: 517 CV - 380 kW,: Rouge,: Essence,http://www.luxauto.lu/fr/occasion/aston-martin-db9-60-v12-touchtronic.html?id=767877&page=7,: 10-2013,: 12.000 km,VENDEUR PROFESSIONNEL,Aston-Martin,Touchtronic,":,00352.273660700","128, route de Thionville,L-2610 Luxembourg",: 2,: Automatique,: Noir,DB9,6.0 V12,: 132.000 €
,: 5935 Cm3,2016-02-09 20:46:13.727881,: 450 CV - 331 kW,: Gris,: Essence,http://www.luxauto.lu/fr/occasion/aston-martin-db9-60-v12-touchtronic.html?id=763831&page=7,: 05-2007,: 67.000 km,VENDEUR PROFESSIONNEL,Aston-Martin,Touchtronic,":,0032.475.457087","903, Chaussée de Marche,B-5100 Wierde",: 2,: Automatique,: ,DB9,6.0 V12,: 57.950 €
,: 4735 Cm3,2016-02-09 20:46:14.077693,: 437 CV - 321 kW,: Gris,: Essence,http://www.luxauto.lu/fr/occasion/aston-martin-v8-vantage-s-roadster-47-sp10-sportshift.html?id=747777&page=8,: 04-2015,: 25.000 km,VENDEUR PROFESSIONNEL,Aston-Martin,Sportshift,":,00352.273660700","128, route de Thionville,L-2610 Luxembourg",: 2,: Séquentielle,: Noir,V8,Roadster 4.7,: 106.500 €
,: 999 Cm3,2016-02-09 20:46:14.313144,: 95 CV - 70 kW,: Noir,: Essence,http://www.luxauto.lu/fr/occasion/audi-a1-10-tfsi-ultra.html?id=743430&page=8,: 01-2016,: 1.100 km,VENDEUR PROFESSIONNEL,Audi,Ultra,":,00352.26,66,67","10, route du Vin,L-5444 Schengen",: 2,: Manuelle,: Noir,A1,1.0 TFSi,: 16.850 €
,: 2771 Cm3,2016-02-09 20:46:14.675005,: 174 CV - 128 kW,: Vert clair,: Essence,http://www.luxauto.lu/fr/occasion/audi-80-cabriolet-28-v6.html?id=567836&page=8,: 04-1997,: 160.000 km,VENDEUR PROFESSIONNEL,Audi,V6,":,00352.621.139127","140, rue Principale,L-8611 Platen",: 3,: Manuelle,: Beige,80,Cabriolet 2.8,: 5.400 €
,: 2600 Cm3,2016-02-09 20:46:14.951501,:  CV - 0 kW,: ,: Essence,http://www.luxauto.lu/fr/occasion/audi-80-cabriolet-26-v6.html?id=746670&page=8,: 01-1993,: 230.000 km,VENDEUR PRIVÉ,Audi,V6,":,00352.621.725390",Dudelange,: 2,: Manuelle,: ,80,Cabriolet 2.6,: 2.900 €
,: 5935 Cm3,2016-02-09 20:46:15.253493,: 573 CV - 421 kW,: Gris foncé,: Essence,http://www.luxauto.lu/fr/occasion/aston-martin-vanquish-60-v12-touchtronic.html?id=760865&page=8,: 07-2015,: 3.500 km,VENDEUR PROFESSIONNEL,Aston-Martin,Touchtronic,":,00352.27489055","19/21, route d’Arlon,L-8009 Strassen",: 2,: Automatique,: Noir,Vanquish,6.0 V12,: 234.990 €
,: 1197 Cm3,2016-02-09 20:46:15.557450,: 86 CV - 63 kW,: Blanc,: Essence,http://www.luxauto.lu/fr/occasion/audi-a1-12-tfsi-ambition.html?id=763809&page=8,: 05-2011,: 68.361 km,VENDEUR PROFESSIONNEL,Audi,Ambition,":,0033.3.82246197","1b, rue Jean Racine,F-54190 Tiercelet",: 3,: Manuelle,: ,A1,1.2 TFSi,: 12.490 €
,: 1395 Cm3,2016-02-09 20:46:16.209460,: 125 CV - 92 kW,: Noir,: Essence,http://www.luxauto.lu/fr/occasion/audi-a1-14-tfsi-sport.html?id=761285&page=8,: 05-2015,: 7.402 km,VENDEUR PROFESSIONNEL,Audi,Sport,":,00352.789493","2-4, Rue Nicolas Glesener,L-6131 Junglinster",: 3,: Manuelle,: ,A1,1.4 TFSi,: 19.930 €
,: 1390 Cm3,2016-02-09 20:46:16.508852,: 185 CV - 136 kW,: Rouge,: Essence,http://www.luxauto.lu/fr/occasion/audi-a1-14-tfsi-s-line-s-tronic.html?id=765988&page=8,: 03-2011,: 88.831 km,VENDEUR PROFESSIONNEL,Audi,S-Tronic,":,00352.329111-440","21, Rue de la Gare,L-7535 Mersch",: 3,: Automatique,: ,A1,1.4 TFSi,: 17.900 €
,: 1390 Cm3,2016-02-09 20:46:16.909291,: 122 CV - 90 kW,: Blanc,: Essence,http://www.luxauto.lu/fr/occasion/audi-a1-14-tfsi-s-line-s-tronic.html?id=764163&page=8,: 04-2011,: 127.500 km,VENDEUR PROFESSIONNEL,Audi,S-Tronic,":,0033.6.88039717","1, rue Eugène Delacroix,F-57310 Bousse",: 3,: Automatique,: Noir,A1,1.4 TFSi,: 11.490 €
,: 1395 Cm3,2016-02-09 20:46:17.344532,: 150 CV - 110 kW,: Gris,: Essence,http://www.luxauto.lu/fr/occasion/audi-a1-14-tfsi-s-line-s-tronic.html?id=742864&page=8,: 06-2015,: 6.900 km,VENDEUR PROFESSIONNEL,Audi,S-Tronic,":,0049.65616004700","Dieselstraße 18,D-54634 Bitburg",: 3,: Automatique,: Noir,A1,1.4 TFSi,: 27.800 €
,: 1395 Cm3,2016-02-09 20:46:17.619475,: 150 CV - 110 kW,: Noir,: Essence,http://www.luxauto.lu/fr/occasion/audi-a1-14-tfsi-s-line-s-tronic.html?id=716224&page=8,: 04-2015,: 10.000 km,VENDEUR PROFESSIONNEL,Audi,S-Tronic,":,00352.555312420","1-2, An der Schmelz,L-4280 Esch-sur-Alzette",: 3,: Automatique,: Noir,A1,1.4 TFSi,: 25.980 €
,: 1395 Cm3,2016-02-09 20:46:17.938330,: 125 CV - 92 kW,: Noir,: Essence,http://www.luxauto.lu/fr/occasion/audi-a1-14-tfsi-design-sport-s-tronic.html?id=765606&page=8,: 03-2015,: 10.600 km,VENDEUR PRIVÉ,Audi,S-Tronic,":,00352.621.314087",Senningerberg,: 3,: Automatique,: Gris foncé,A1,1.4 TFSi,: 20.000 €
,: 1390 Cm3,2016-02-09 20:46:18.237482,: 122 CV - 90 kW,: Gris foncé,: Essence,http://www.luxauto.lu/fr/occasion/audi-a1-14-tfsi-ambition-s-line.html?id=770853&page=8,: 05-2012,: 55.000 km,VENDEUR PRIVÉ,Audi,S-Line,":,00352.691.617394",Bergem,: 3,: Manuelle,: Noir,A1,1.4 TFSi,: 16.700 €
,: 1390 Cm3,2016-02-09 20:46:18.829196,: 122 CV - 90 kW,: Argent,: Essence,http://www.luxauto.lu/fr/occasion/audi-a1-14-tfsi-ambition.html?id=768347&page=8,: 03-2013,: 31.500 km,VENDEUR PRIVÉ,Audi,Ambition,":,00352.621.151704",Bergem,: 2,: Manuelle,: Gris foncé,A1,1.4 TFSi,: 14.950 €
,: 1390 Cm3,2016-02-09 20:46:19.058711,: 122 CV - 90 kW,: Noir,: Essence,http://www.luxauto.lu/fr/occasion/audi-a1-14-tfsi-ambition.html?id=767956&page=8,: 01-2011,: 61.000 km,VENDEUR PRIVÉ,Audi,Ambition,":,0033.6.79221584",F-57640 Argancy,: 3,: Manuelle,: Gris clair,A1,1.4 TFSi,: 13.500 €
,: 1390 Cm3,2016-02-09 20:46:19.250165,: 122 CV - 90 kW,: Noir,: Essence,http://www.luxauto.lu/fr/occasion/audi-a1-14-tfsi-ambition.html?id=767530&page=8,: 12-2011,: 46.700 km,VENDEUR PROFESSIONNEL,Audi,Ambition,":,00352.24559055","1, rue Lankelz,L-4205 Esch-sur-Alzette",: 3,: Manuelle,: Gris foncé,A1,1.4 TFSi,: 13.500 €
,: 1390 Cm3,2016-02-09 20:46:19.939932,: 122 CV - 90 kW,: Noir,: Essence,http://www.luxauto.lu/fr/occasion/audi-a1-14-tfsi-ambition.html?id=767421&page=8,: 11-2013,: 17.000 km,VENDEUR PRIVÉ,Audi,Ambition,":,00352.621.375612",Luxembourg,: 3,: Manuelle,: ,A1,1.4 TFSi,: 14.500 €
,: 1422 Cm3,2016-02-09 20:46:20.255571,: 90 CV - 66 kW,: Rouge,: Diesel,http://www.luxauto.lu/fr/occasion/audi-a1-14-tdi-90.html?id=695825&page=8,: 00-,: 1.000 km,VENDEUR PROFESSIONNEL,Audi,90,":,00352.958148","32, route d'Erpeldange,L-9518 Weidingen-Wiltz",: 3,: Manuelle,: Noir,A1,1.4 Tdi,: 22.700 €
,: 1197 Cm3,2016-02-09 20:46:20.405465,: 86 CV - 63 kW,: Rouge,: Essence,http://www.luxauto.lu/fr/occasion/audi-a1-12-tfsi-s-line.html?id=743396&page=8,: 09-2013,: 19.982 km,VENDEUR PROFESSIONNEL,Audi,S-Line,":,0033.3.82585274","Zone Artisanale rue des Ateliers,F-57330 Hettange-Grande",: 3,: Manuelle,: Noir,A1,1.2 TFSi,: 15.870 €
,: 1197 Cm3,2016-02-09 20:46:20.936780,: 86 CV - 63 kW,: Noir,: Essence,http://www.luxauto.lu/fr/occasion/audi-a1-12-tfsi-ambition-luxe.html?id=770599&page=8,: 11-2011,: 49.500 km,VENDEUR PROFESSIONNEL,Audi,Luxe,":,00352.24559055","1, rue Lankelz,L-4205 Esch-sur-Alzette",: 3,: Manuelle,: Jaune,A1,1.2 TFSi,: 13.500 €
,: 1598 Cm3,2016-02-09 20:46:21.295979,: 105 CV - 77 kW,: Noir,: Diesel,http://www.luxauto.lu/fr/occasion/audi-a1-16-tdi-105.html?id=719339&page=9,: 06-2013,: 28.000 km,VENDEUR PRIVÉ,Audi,105,":,0033.6.81884861",F-54350 Mont-Saint-Martin,: 3,: Manuelle,: Noir,A1,1.6 Tdi,: 15.500 €
,: 1598 Cm3,2016-02-09 20:46:21.507177,: 105 CV - 77 kW,: Rouge,: Diesel,http://www.luxauto.lu/fr/occasion/audi-a1-16-tdi-105-ambition-luxe.html?id=771278&page=9,: 03-2011,: 57.500 km,VENDEUR PROFESSIONNEL,Audi,Luxe,":,00352.24559055","1, rue Lankelz,L-4205 Esch-sur-Alzette",: 3,: Manuelle,: Noir,A1,1.6 Tdi,: 14.500 €
,: 1598 Cm3,2016-02-09 20:46:22.127057,: 105 CV - 77 kW,: Bordeaux,: Diesel,http://www.luxauto.lu/fr/occasion/audi-a1-16-tdi-105-ambition.html?id=766962&page=9,: 04-2011,: 78.210 km,VENDEUR PROFESSIONNEL,Audi,Ambition,":,0032.61.275192","7, Zone Artisanale de Weyler,B-6700 Arlon",: 3,: Manuelle,: ,A1,1.6 Tdi,: 11.990 €
,: 1598 Cm3,2016-02-09 20:46:22.435757,: 105 CV - 77 kW,: Rouge,: Diesel,http://www.luxauto.lu/fr/occasion/audi-a1-16-tdi-105-ambition.html?id=764916&page=9,: 10-2011,: 92.900 km,VENDEUR PROFESSIONNEL,Audi,Ambition,":,00352.621.359.272","8, Rue Jean-Pierre Molitor,L-5670 Altwies",: 3,: Manuelle,: Noir,A1,1.6 Tdi,: 11.990 €
,: 1598 Cm3,2016-02-09 20:46:22.751507,: 105 CV - 77 kW,: Bleu,: Diesel,http://www.luxauto.lu/fr/occasion/audi-a1-16-tdi-105-ambition.html?id=762539&page=9,: 11-2010,: 82.850 km,VENDEUR PROFESSIONNEL,Audi,Ambition,":,0032.63.240643","117, rue de l'Hydrion,B-6700 Arlon",: 3,: Manuelle,: ,A1,1.6 Tdi,: 13.900 €
,: 1598 Cm3,2016-02-09 20:46:25.967614,: 105 CV - 77 kW,: Noir,: Diesel,http://www.luxauto.lu/fr/occasion/audi-a1-16-tdi-105.html?id=748538&page=9,: 01-2011,: 135.000 km,VENDEUR PRIVÉ,Audi,105,":,0033.6.78699740",F-54430 Rehon,: 3,: Manuelle,: ,A1,1.6 Tdi,: 10.000 €
,: 1598 Cm3,2016-02-09 20:46:26.254924,: 105 CV - 77 kW,: Orange,: Diesel,http://www.luxauto.lu/fr/occasion/audi-a1-16-tdi-105-ambition.html?id=695342&page=9,: 01-2015,: 13.000 km,VENDEUR PROFESSIONNEL,Audi,Ambition,":,00352.958148","32, route d'Erpeldange,L-9518 Weidingen-Wiltz",: 3,: Manuelle,: ,A1,1.6 Tdi,: 20.300 €
,: 1598 Cm3,2016-02-09 20:46:26.304490,: 105 CV - 77 kW,: Gris clair,: Diesel,http://www.luxauto.lu/fr/occasion/audi-a1-16-tdi-105.html?id=769571&page=9,: 12-2011,: 97.000 km,VENDEUR PRIVÉ,Audi,105,":,00352.691.547471",Clemency,: 3,: Manuelle,: Gris,A1,1.6 Tdi,: 12.000 €
,: 1598 Cm3,2016-02-09 20:46:26.472560,: 105 CV - 77 kW,: Argent,: Diesel,http://www.luxauto.lu/fr/occasion/audi-a1-16-tdi-105-ambition.html?id=743057&page=9,: 10-2014,: 4.711 km,VENDEUR PROFESSIONNEL,Audi,Ambition,":,00352.400707-231","78-90, Route de Thionville,L-2610 Luxembourg",: 3,: Manuelle,: ,A1,1.6 Tdi,: 17.900 €
,: 1598 Cm3,2016-02-09 20:46:26.702737,: 105 CV - 77 kW,: Noir,: Diesel,http://www.luxauto.lu/fr/occasion/audi-a1-16-tdi-105-ambition.html?id=758843&page=9,: 02-2011,: 87.800 km,VENDEUR PROFESSIONNEL,Audi,Ambition,":,0032.61.314355","61, rue Albert 1er,B-6810 Pin (Chiny)",: 3,: Manuelle,: ,A1,1.6 Tdi,: 12.990 €
,: 1598 Cm3,2016-02-09 20:46:26.890950,: 90 CV - 66 kW,: Noir,: Diesel,http://www.luxauto.lu/fr/occasion/audi-a1-16-tdi-90-ambition.html?id=769985&page=9,: 09-2012,: 59.000 km,VENDEUR PROFESSIONNEL,Audi,Ambition,":,00352.621.152081","(sur RDV),L-3560 Dudelange",: 5,: Manuelle,: Noir,A1,1.6 Tdi,: 13.600 €
,: 1598 Cm3,2016-02-09 20:46:26.989791,: 90 CV - 66 kW,: Blanc,: Diesel,http://www.luxauto.lu/fr/occasion/audi-a1-16-tdi-90-ambition.html?id=764316&page=9,: 02-2011,: 104.000 km,VENDEUR PRIVÉ,Audi,Ambition,":,0033.7.89039006",F-57000 Metz,: 3,: Manuelle,: Noir,A1,1.6 Tdi,: 10.800 €
,: 1598 Cm3,2016-02-09 20:46:27.429761,: 90 CV - 66 kW,: Blanc,: Diesel,http://www.luxauto.lu/fr/occasion/audi-a1-16-tdi-90-ambition.html?id=759009&page=9,: 11-2011,: 76.500 km,VENDEUR PROFESSIONNEL,Audi,Ambition,":,0032.63.240643","117, rue de l'Hydrion,B-6700 Arlon",: 3,: Manuelle,: ,A1,1.6 Tdi,: 14.200 €
,: 1598 Cm3,2016-02-09 20:46:28.041649,: 90 CV - 66 kW,: Blanc,: Diesel,http://www.luxauto.lu/fr/occasion/audi-a1-16-tdi-90.html?id=769515&page=9,: 04-2013,: 30.709 km,VENDEUR PRIVÉ,Audi,90,":,00352.661.580820",Soleuvre,: 3,: Manuelle,: Noir,A1,1.6 Tdi,: 16.850 €
,: 1598 Cm3,2016-02-09 20:46:28.624771,: 90 CV - 66 kW,: Rouge,: Diesel,http://www.luxauto.lu/fr/occasion/audi-a1-16-tdi-90.html?id=762456&page=9,: 09-2012,: 47.621 km,VENDEUR PROFESSIONNEL,Audi,90,":,00352.889494","5, Zone Industrielle,L-9166 Mertzig",: 3,: Manuelle,: Noir,A1,1.6 Tdi,: 15.100 €
,: 1598 Cm3,2016-02-09 20:46:28.867262,: 90 CV - 66 kW,: Blanc,: Diesel,http://www.luxauto.lu/fr/occasion/audi-a1-16-tdi-90.html?id=743527&page=9,: 11-2012,: 94.000 km,VENDEUR PROFESSIONNEL,Audi,90,":,00352.26652607","21, Rue Robert Krieps,L-4702 Pétange",: 3,: Manuelle,: Noir,A1,1.6 Tdi,: 13.900 €
,: 1598 Cm3,2016-02-09 20:46:29.100172,: 116 CV - 85 kW,: Gris,: Diesel,http://www.luxauto.lu/fr/occasion/audi-a1-16-tdi-115-sport.html?id=752556&page=9,: 09-2015,: 5.997 km,VENDEUR PROFESSIONNEL,Audi,Sport,":,00352.263355563","6, Cité Grand-Duc Jean,L-7233 Bereldange",: 3,: Manuelle,: ,A1,1.6 Tdi,: 27.380 €
,: 1598 Cm3,2016-02-09 20:46:29.716173,: 116 CV - 85 kW,: Argent,: Diesel,http://www.luxauto.lu/fr/occasion/audi-a1-16-tdi-115-s-tronic.html?id=706190&page=9,: 03-2015,: 4.000 km,VENDEUR PROFESSIONNEL,Audi,S-Tronic,":,00352.958148","32, route d'Erpeldange,L-9518 Weidingen-Wiltz",: 3,: Séquentielle,: ,A1,1.6 Tdi,: 21.300 €
,: 1598 Cm3,2016-02-09 20:46:29.956167,: 105 CV - 77 kW,: Anthracite,: Diesel,http://www.luxauto.lu/fr/occasion/audi-a1-16-tdi-105-s-line.html?id=720696&page=9,: 05-2014,: 6.600 km,VENDEUR PROFESSIONNEL,Audi,S-Line,":,00352.26,66,67","10, route du Vin,L-5444 Schengen",: 3,: Manuelle,: Anthracite,A1,1.6 Tdi,: 25.500 €
,: 1598 Cm3,2016-02-09 20:46:30.234322,: 105 CV - 77 kW,: Blanc,: Diesel,http://www.luxauto.lu/fr/occasion/audi-a1-16-tdi-105-attraction.html?id=766033&page=9,: 09-2014,: 33.753 km,VENDEUR PROFESSIONNEL,Audi,Attraction,":,00352.671.408409","408, route de Longwy,L-4832 Rodange",: 3,: Manuelle,: ,A1,1.6 Tdi,: 15.990 €
,: 1598 Cm3,2016-02-09 20:46:31.368507,: 90 CV - 66 kW,: Rouge,: Diesel,http://www.luxauto.lu/fr/occasion/audi-a1-16-tdi-90-ambition-s-tronic.html?id=757129&page=10,: 03-2012,: 43.998 km,VENDEUR PROFESSIONNEL,Audi,S-Tronic,":,0033.3.82246197","1b, rue Jean Racine,F-54190 Tiercelet",: 3,: Automatique,: ,A1,1.6 Tdi,: 15.990 €
,: 1598 Cm3,2016-02-09 20:46:31.649956,: 90 CV - 66 kW,: Noir,: Diesel,http://www.luxauto.lu/fr/occasion/audi-a1-16-tdi-90-attraction.html?id=766040&page=10,: 09-2012,: 99.200 km,VENDEUR PROFESSIONNEL,Audi,Attraction,":,0032.61.314355","61, rue Albert 1er,B-6810 Pin (Chiny)",: 3,: Manuelle,: ,A1,1.6 Tdi,: 12.490 €
,: 1598 Cm3,2016-02-09 20:46:31.794493,: 90 CV - 66 kW,: Noir,: Diesel,http://www.luxauto.lu/fr/occasion/audi-a1-16-tdi-90-attraction.html?id=749677&page=10,: 09-2012,: 58.323 km,VENDEUR PROFESSIONNEL,Audi,Attraction,":,00352.331518","8, Millewee,L-7257 Walferdange",: 3,: Manuelle,: Noir,A1,1.6 Tdi,: 13.990 €
,: 1968 Cm3,2016-02-09 20:46:32.281595,: 143 CV - 105 kW,: Blanc,: Diesel,http://www.luxauto.lu/fr/occasion/audi-a1-20-tdi-143-s-line.html?id=763507&page=10,: 02-2015,: 26.200 km,VENDEUR PROFESSIONNEL,Audi,S-Line,":,0049.65616004700","Dieselstraße 18,D-54634 Bitburg",: 3,: Manuelle,: Noir,A1,2.0 Tdi,: 22.900 €
,: 1598 Cm3,2016-02-09 20:46:32.740367,: 90 CV - 66 kW,: Gris clair,: Diesel,http://www.luxauto.lu/fr/occasion/audi-a1-16-tdi-90-urban-sport.html?id=769840&page=10,: 06-2013,: 87.000 km,VENDEUR PROFESSIONNEL,Audi,Sport,":,0033.6.72774095","25, route de Longwy,F-54350 Mont-st-Martin",: 3,: Manuelle,: Gris,A1,1.6 Tdi,: 13.900 €
,: 1598 Cm3,2016-02-09 20:46:32.843599,: 90 CV - 66 kW,: Blanc,: Diesel,http://www.luxauto.lu/fr/occasion/audi-a1-16-tdi-90-s-line-s-tronic.html?id=764706&page=10,: 05-2014,: 30.800 km,VENDEUR PROFESSIONNEL,Audi,S-Tronic,":,00352.26887395","Z.A.C. Klengbousbierg, 9,L-7795 Bissen",: 3,: Automatique,: Noir,A1,1.6 Tdi,: 20.990 €
,: 1598 Cm3,2016-02-09 20:46:33.174750,: 90 CV - 66 kW,: Blanc,: Diesel,http://www.luxauto.lu/fr/occasion/audi-a1-16-tdi-90-s-line.html?id=730244&page=10,: 07-2013,: 21.000 km,VENDEUR PROFESSIONNEL,Audi,S-Line,":,00352.661.750731","60, Route d'Arlon,L-8008 Strassen",: 3,: Manuelle,: Noir,A1,1.6 Tdi,: 19.950 €
,: 1197 Cm3,2016-02-09 20:46:33.411104,: 86 CV - 63 kW,: Blanc,: Essence,http://www.luxauto.lu/fr/occasion/audi-a1-sportback-12-tfsi-attraction.html?id=748505&page=10,: 09-2014,: 11.000 km,VENDEUR PROFESSIONNEL,Audi,Attraction,":,00352.26,66,67","10, route du Vin,L-5444 Schengen",: 5,: Manuelle,: Anthracite,A1,Sportback 1.2,: 18.400 €
,: 999 Cm3,2016-02-09 20:46:33.776937,: 95 CV - 70 kW,: Noir,: Essence,http://www.luxauto.lu/fr/occasion/audi-a1-sportback-10-tfsi-ultra.html?id=769986&page=10,: 01-2016,: 1.100 km,VENDEUR PROFESSIONNEL,Audi,Ultra,":,00352.26,66,67","10, route du Vin,L-5444 Schengen",: 5,: Manuelle,: Anthracite,A1,Sportback 1.0,: 17.650 €
,: 1984 Cm3,2016-02-09 20:46:34.278875,: 256 CV - 188 kW,: Blanc,: Essence,http://www.luxauto.lu/fr/occasion/audi-a1-20-tfsi-quattro.html?id=769724&page=10,: 11-2012,: 7.900 km,VENDEUR PROFESSIONNEL,Audi,Quattro,":,00352.691.910453","43, route de Mondorf,L-5470 Wellenstein",: 3,: Manuelle,: Noir,A1,2.0 TFSi,: 49.990 €
,: 1422 Cm3,2016-02-09 20:46:34.430247,: 90 CV - 66 kW,: Blanc,: Diesel,http://www.luxauto.lu/fr/occasion/audi-a1-sportback-14-tdi-90.html?id=767493&page=10,: 00-2016,: 10 km,VENDEUR PROFESSIONNEL,Audi,90,":,00352.551692","7, Rue Neuve,L-3938 Mondercange",: 5,: Manuelle,: Noir,A1,Sportback 1.4,: 19.450 €
,: 1422 Cm3,2016-02-09 20:46:34.707351,: 90 CV - 66 kW,: Rouge,: Diesel,http://www.luxauto.lu/fr/occasion/audi-a1-sportback-14-tdi-90.html?id=767477&page=10,: 09-2015,: 300 km,VENDEUR PROFESSIONNEL,Audi,90,":,00352.621.322810","BP 9,L-9006 Grosbous",: 5,: Manuelle,: Noir,A1,Sportback 1.4,: 19.700 €
,: 1422 Cm3,2016-02-09 20:46:35.050608,: 90 CV - 66 kW,: Noir,: Diesel,http://www.luxauto.lu/fr/occasion/audi-a1-sportback-14-tdi-90.html?id=743644&page=10,: 09-2015,: 100 km,VENDEUR PROFESSIONNEL,Audi,90,":,00352.26959595","5, Z.A.C. Happerfeld,L-9806 Hosingen",: 5,: Manuelle,: ,A1,Sportback 1.4,: 19.970 €
,: 1422 Cm3,2016-02-09 20:46:35.646662,: 90 CV - 66 kW,: Noir,: Diesel,http://www.luxauto.lu/fr/occasion/audi-a1-sportback-14-tdi-90-ultra-sport.html?id=769824&page=10,: 06-2015,: 1.351 km,VENDEUR PROFESSIONNEL,Audi,Sport,":,0032.84.220050","119, Rue de Ciney,B-5580 Rochefort",: 5,: Manuelle,: ,A1,Sportback 1.4,: 21.500 €
,: 1422 Cm3,2016-02-09 20:46:35.838023,: 90 CV - 66 kW,: Blanc,: Diesel,http://www.luxauto.lu/fr/occasion/audi-a1-sportback-14-tdi-90-ultra-sport.html?id=764600&page=10,: 00-2016,: 60 km,VENDEUR PROFESSIONNEL,Audi,Sport,":,00352.26887395","Z.A.C. Klengbousbierg, 9,L-7795 Bissen",: 5,: Manuelle,: Noir,A1,Sportback 1.4,: 20.990 €
,: 1422 Cm3,2016-02-09 20:46:36.279037,: 90 CV - 66 kW,: Gris,: Diesel,http://www.luxauto.lu/fr/occasion/audi-a1-sportback-14-tdi-90-ultra-sport.html?id=749490&page=10,: 01-2016,: 30 km,VENDEUR PROFESSIONNEL,Audi,Sport,":,00352.398945","Rue de Koerich, 60,L-8437 Steinfort",: 5,: Manuelle,: Noir,A1,Sportback 1.4,: 19.690 €
,: 1422 Cm3,2016-02-09 20:46:36.584694,: 90 CV - 66 kW,: Noir,: Diesel,http://www.luxauto.lu/fr/occasion/audi-a1-sportback-14-tdi-90-ultra-sport.html?id=740208&page=10,: 01-2016,: 100 km,VENDEUR PROFESSIONNEL,Audi,Sport,":,00352.398945","Rue de Koerich, 60,L-8437 Steinfort",: 5,: Manuelle,: Noir,A1,Sportback 1.4,: 19.690 €
,: 1422 Cm3,2016-02-09 20:46:36.859256,: 90 CV - 66 kW,: Blanc,: Diesel,http://www.luxauto.lu/fr/occasion/audi-a1-sportback-14-tdi-90-ultra-sport.html?id=740202&page=10,: 01-2016,: 30 km,VENDEUR PROFESSIONNEL,Audi,Sport,":,00352.398945","Rue de Koerich, 60,L-8437 Steinfort",: 5,: Manuelle,: Noir,A1,Sportback 1.4,: 19.690 €
,: 1422 Cm3,2016-02-09 20:46:37.180377,: 90 CV - 66 kW,: Blanc,: Diesel,http://www.luxauto.lu/fr/occasion/audi-a1-sportback-14-tdi-90-ultra-design.html?id=758268&page=10,: 00-,: 10 km,VENDEUR PROFESSIONNEL,Audi,Design,":,00352.921158","18, Route de Bastogne,L-9706 Clervaux",: 5,: Manuelle,: ,A1,Sportback 1.4,: 22.390 €
,: 1422 Cm3,2016-02-09 20:46:37.479435,: 90 CV - 66 kW,: Gris foncé,: Diesel,http://www.luxauto.lu/fr/occasion/audi-a1-sportback-14-tdi-90-ultra.html?id=763784&page=10,: 06-2015,: 1.116 km,VENDEUR PROFESSIONNEL,Audi,Ultra,":,0032.84.220050","119, Rue de Ciney,B-5580 Rochefort",: 5,: Manuelle,: ,A1,Sportback 1.4,: 20.250 €
,: 1395 Cm3,2016-02-09 20:46:38.051254,: 125 CV - 92 kW,: ,: Essence,http://www.luxauto.lu/fr/occasion/audi-a1-sportback-14-tfsi.html?id=767786&page=11,: 07-2015,: 7.100 km,VENDEUR PROFESSIONNEL,Audi,TFSi,":,00352.2360771","5, Quai de la Moselle,L-5405 Bech-Kleinmacher",: 5,: Manuelle,: ,A1,Sportback 1.4,: 19.901 €
,: 1598 Cm3,2016-02-09 20:46:38.105540,: 90 CV - 66 kW,: Noir,: Diesel,http://www.luxauto.lu/fr/occasion/audi-a1-sportback-16-tdi-105-ambition.html?id=769955&page=11,: 09-2013,: 48.000 km,VENDEUR PROFESSIONNEL,Audi,Ambition,":,00352.621.178677","22, rue Général Patton,L-2317 Howald",: 5,: Manuelle,: ,A1,Sportback 1.6,: 16.900 €
,: 1598 Cm3,2016-02-09 20:46:38.264676,: 105 CV - 77 kW,: Noir,: Diesel,http://www.luxauto.lu/fr/occasion/audi-a1-sportback-16-tdi-105-ambition.html?id=761399&page=11,: 01-2012,: 39.800 km,VENDEUR PROFESSIONNEL,Audi,Ambition,":,00352.27992552","19, rue du Village,L-5423 Ersange",: 5,: Manuelle,: Noir,A1,Sportback 1.6,: 15.700 €
,: 1598 Cm3,2016-02-09 20:46:38.547171,: 105 CV - 77 kW,: Noir,: Diesel,http://www.luxauto.lu/fr/occasion/audi-a1-sportback-16-tdi-105-ambition.html?id=759754&page=11,: 00-,: 85.820 km,VENDEUR PROFESSIONNEL,Audi,Ambition,":,00352.28777742","8, route de Longwy,L-8080 Bertrange",: 5,: Manuelle,: Noir,A1,Sportback 1.6,: 15.990 €
,: 1598 Cm3,2016-02-09 20:46:38.942901,: 105 CV - 77 kW,: ,: Diesel,http://www.luxauto.lu/fr/occasion/audi-a1-sportback-16-tdi-105-ambition.html?id=758545&page=11,: 09-2013,: 56.249 km,VENDEUR PROFESSIONNEL,Audi,Ambition,":,00352.272140158","8A, Route de Longwy,L-8080 Bertrange",: 5,: Manuelle,: ,A1,Sportback 1.6,: 16.950 €
,: 1598 Cm3,2016-02-09 20:46:40.093608,: 105 CV - 77 kW,: Noir,: Diesel,http://www.luxauto.lu/fr/occasion/audi-a1-sportback-16-tdi-105-ambition.html?id=752783&page=11,: 04-2012,: 120.000 km,VENDEUR PRIVÉ,Audi,Ambition,":,00352.661.113799",Luxembourg,: 5,: Manuelle,: Noir,A1,Sportback 1.6,: 12.100 €
,: 1598 Cm3,2016-02-09 20:46:40.161357,: 105 CV - 77 kW,: Gris clair,: Diesel,http://www.luxauto.lu/fr/occasion/audi-a1-sportback-16-tdi-105.html?id=761506&page=11,: 10-2012,: 51.230 km,VENDEUR PRIVÉ,Audi,105,":,00352.691.179205",Schifflange,: 5,: Manuelle,: Gris clair,A1,Sportback 1.6,: 13.800 €
,: 1598 Cm3,2016-02-09 20:46:40.220256,: 105 CV - 77 kW,: Bleu clair,: Diesel,http://www.luxauto.lu/fr/occasion/audi-a1-sportback-16-tdi-105.html?id=750447&page=11,: 05-2013,: 28.500 km,VENDEUR PROFESSIONNEL,Audi,105,":,00352.49,66,40","35b, rue des 3 Cantons,L-3961 Ehlange",: 5,: Manuelle,: Noir,A1,Sportback 1.6,: 17.900 €
,: 1598 Cm3,2016-02-09 20:46:40.282082,: 105 CV - 77 kW,: Argent,: Diesel,http://www.luxauto.lu/fr/occasion/audi-a1-sportback-16-tdi-105.html?id=757224&page=11,: 09-2012,: 109.000 km,VENDEUR PROFESSIONNEL,Audi,105,":,0032.61.279573","76, Rue des Corettes,B-6880 Bertrix",: 5,: Manuelle,: ,A1,Sportback 1.6,: 14.550 €
,: 1598 Cm3,2016-02-09 20:46:40.429465,: 105 CV - 77 kW,: Blanc,: Diesel,http://www.luxauto.lu/fr/occasion/audi-a1-sportback-16-tdi-105.html?id=737953&page=11,: 04-2012,: 76.420 km,VENDEUR PROFESSIONNEL,Audi,105,":,00352.28777742","8, route de Longwy,L-8080 Bertrange",: 5,: Manuelle,: Noir,A1,Sportback 1.6,: 18.990 €
,: 1395 Cm3,2016-02-09 20:46:40.605021,: 125 CV - 92 kW,: Noir,: Essence,http://www.luxauto.lu/fr/occasion/audi-a1-sportback-14-tfsi-sport-s-tronic.html?id=770009&page=11,: 03-2015,: 8.100 km,VENDEUR PRIVÉ,Audi,S-Tronic,":,00352.661.611633",Luxembourg,: 5,: Automatique,: Gris,A1,Sportback 1.4,: 24.950 €
,: 1390 Cm3,2016-02-09 20:46:41.027199,: 122 CV - 90 kW,: Noir,: Essence,http://www.luxauto.lu/fr/occasion/audi-a1-sportback-14-tfsi-s-line.html?id=720699&page=11,: 12-2014,: 6.600 km,VENDEUR PROFESSIONNEL,Audi,S-Line,":,00352.26,66,67","10, route du Vin,L-5444 Schengen",: 5,: Manuelle,: Anthracite,A1,Sportback 1.4,: 26.500 €
,: 1390 Cm3,2016-02-09 20:46:41.206202,: 122 CV - 90 kW,: Argent,: Essence,http://www.luxauto.lu/fr/occasion/audi-a1-sportback-14-tfsi-ambition.html?id=759169&page=11,: 10-2012,: 33.924 km,VENDEUR PROFESSIONNEL,Audi,Ambition,":,00352.789493","2-4, Rue Nicolas Glesener,L-6131 Junglinster",: 5,: Manuelle,: ,A1,Sportback 1.4,: 15.930 €
,: 1598 Cm3,2016-02-09 20:46:41.783344,: 116 CV - 85 kW,: ,: Diesel,http://www.luxauto.lu/fr/occasion/audi-a1-sportback-16-tdi-115.html?id=758330&page=11,: 04-2015,: 7.500 km,VENDEUR PROFESSIONNEL,Audi,115,":,00352.2360771","5, Quai de la Moselle,L-5405 Bech-Kleinmacher",: 5,: Manuelle,: ,A1,Sportback 1.6,: 19.300 €
,: 1598 Cm3,2016-02-09 20:46:42.211689,: 116 CV - 85 kW,: ,: Diesel,http://www.luxauto.lu/fr/occasion/audi-a1-sportback-16-tdi-115.html?id=758329&page=11,: 04-2015,: 8.200 km,VENDEUR PROFESSIONNEL,Audi,115,":,00352.2360771","5, Quai de la Moselle,L-5405 Bech-Kleinmacher",: 5,: Manuelle,: ,A1,Sportback 1.6,: 19.300 €
,: 1598 Cm3,2016-02-09 20:46:42.788589,: 116 CV - 85 kW,: Rouge,: Diesel,http://www.luxauto.lu/fr/occasion/audi-a1-sportback-16-tdi-115.html?id=757907&page=11,: 00-,: 10 km,VENDEUR PROFESSIONNEL,Audi,115,":,00352.921158","18, Route de Bastogne,L-9706 Clervaux",: 5,: Manuelle,: ,A1,Sportback 1.6,: 24.690 €
,: 1598 Cm3,2016-02-09 20:46:43.425058,: 116 CV - 85 kW,: Blanc,: Diesel,http://www.luxauto.lu/fr/occasion/audi-a1-sportback-16-tdi-115.html?id=757562&page=11,: 00-,: 0 km,VENDEUR PROFESSIONNEL,Audi,115,":,00352.921158","18, Route de Bastogne,L-9706 Clervaux",: 5,: Manuelle,: ,A1,Sportback 1.6,: 21.490 €
,: 1598 Cm3,2016-02-09 20:46:43.548993,: 116 CV - 85 kW,: ,: Diesel,http://www.luxauto.lu/fr/occasion/audi-a1-sportback-16-tdi-115.html?id=749066&page=11,: 04-2015,: 13.200 km,VENDEUR PROFESSIONNEL,Audi,115,":,00352.2360771","5, Quai de la Moselle,L-5405 Bech-Kleinmacher",: 5,: Manuelle,: ,A1,Sportback 1.6,: 21.300 €
,: 1598 Cm3,2016-02-09 20:46:44.024637,: 105 CV - 77 kW,: Brun,: Diesel,http://www.luxauto.lu/fr/occasion/audi-a1-sportback-16-tdi-105-attraction.html?id=768725&page=11,: 10-2012,: 49.500 km,VENDEUR PROFESSIONNEL,Audi,Attraction,":,00352.404411-259","Z.A Am Bann - 7, rue Nicolas Brosius,L-3372 Leudelange",: 5,: Manuelle,: Beige,A1,Sportback 1.6,: 14.490 €
,: 1598 Cm3,2016-02-09 20:46:44.301493,: 105 CV - 77 kW,: Noir,: Diesel,http://www.luxauto.lu/fr/occasion/audi-a1-sportback-16-tdi-105-ambition.html?id=770988&page=11,: 02-2013,: 29.000 km,VENDEUR PRIVÉ,Audi,Ambition,":,0033.6.70982135",F-57390 Audun-le-Tiche,: 5,: Manuelle,: Noir,A1,Sportback 1.6,: 17.400 €
,: 1598 Cm3,2016-02-09 20:46:44.652929,: 116 CV - 85 kW,: ,: Diesel,http://www.luxauto.lu/fr/occasion/audi-a1-sportback-16-tdi-115.html?id=758331&page=12,: 04-2015,: 7.000 km,VENDEUR PROFESSIONNEL,Audi,115,":,00352.2360771","5, Quai de la Moselle,L-5405 Bech-Kleinmacher",: 5,: Manuelle,: ,A1,Sportback 1.6,: 19.300 €
,: 1598 Cm3,2016-02-09 20:46:45.304280,: 90 CV - 66 kW,: Noir,: Diesel,http://www.luxauto.lu/fr/occasion/audi-a1-sportback-16-tdi-90-ambition.html?id=755369&page=12,: 11-2012,: 82.000 km,VENDEUR PROFESSIONNEL,Audi,Ambition,":,00352.691.707017","20, rue Joseph Kieffer,L-4176 Esch-sur-Alzette",: 5,: Manuelle,: Noir,A1,Sportback 1.6,: 14.990 €
,: 1598 Cm3,2016-02-09 20:46:45.592682,: 90 CV - 66 kW,: Bleu foncé,: Diesel,http://www.luxauto.lu/fr/occasion/audi-a1-sportback-16-tdi-90-ambition.html?id=731659&page=12,: 09-2014,: 30.100 km,VENDEUR PROFESSIONNEL,Audi,Ambition,":,00352.327901305","175, Route de Luxembourg,L-7540 Rollingen-Mersch",: 5,: Manuelle,: Noir,A1,Sportback 1.6,: 18.900 €
,: 1598 Cm3,2016-02-09 20:46:46.061060,: 90 CV - 66 kW,: Anthracite,: Diesel,http://www.luxauto.lu/fr/occasion/audi-a1-sportback-16-tdi-90-ambition.html?id=720697&page=12,: 01-2014,: 27.000 km,VENDEUR PROFESSIONNEL,Audi,Ambition,":,00352.26,66,67","10, route du Vin,L-5444 Schengen",: 5,: Manuelle,: Anthracite,A1,Sportback 1.6,: 19.400 €
,: 1598 Cm3,2016-02-09 20:46:46.506276,: 90 CV - 66 kW,: Gris foncé,: Diesel,http://www.luxauto.lu/fr/occasion/audi-a1-sportback-16-tdi-90-ambition.html?id=692971&page=12,: 02-2014,: 25.400 km,VENDEUR PROFESSIONNEL,Audi,Ambition,":,00352.691.690012","14, rue du Bois,L-3980 Wickrange",: 5,: Manuelle,: Anthracite,A1,Sportback 1.6,: 18.890 €
,: 1598 Cm3,2016-02-09 20:46:46.861590,: 90 CV - 66 kW,: Noir,: Diesel,http://www.luxauto.lu/fr/occasion/audi-a1-sportback-16-tdi-90.html?id=770628&page=12,: 09-2014,: 24.500 km,VENDEUR PROFESSIONNEL,Audi,90,":,0032.61.314355","61, rue Albert 1er,B-6810 Pin (Chiny)",: 5,: Manuelle,: ,A1,Sportback 1.6,: 16.590 €
,: 1598 Cm3,2016-02-09 20:46:47.014784,: 90 CV - 66 kW,: Noir,: Diesel,http://www.luxauto.lu/fr/occasion/audi-a1-sportback-16-tdi-90.html?id=756971&page=12,: 11-2014,: 12.310 km,VENDEUR PROFESSIONNEL,Audi,90,":,00352.889494","5, Zone Industrielle,L-9166 Mertzig",: 5,: Manuelle,: Noir,A1,Sportback 1.6,: 16.600 €
,: 1598 Cm3,2016-02-09 20:46:47.727889,: 90 CV - 66 kW,: Noir,: Diesel,http://www.luxauto.lu/fr/occasion/audi-a1-sportback-16-tdi-90.html?id=735660&page=12,: 01-2013,: 89.900 km,VENDEUR PROFESSIONNEL,Audi,90,":,00352.621.647538","2, rue Geespelt (Station TOTAL),L-3378 Livange",: 5,: Manuelle,: Gris foncé,A1,Sportback 1.6,: 14.990 €
,: 1600 Cm3,2016-02-09 20:46:47.926428,: 115 CV - 85 kW,: Noir,: Diesel,http://www.luxauto.lu/fr/occasion/audi-a1-sportback-16-tdi-115-sport.html?id=756107&page=12,: 04-2015,: 13.075 km,VENDEUR PROFESSIONNEL,Audi,Sport,":,00352.2360771","5, Quai de la Moselle,L-5405 Bech-Kleinmacher",: 5,: Manuelle,: ,A1,Sportback 1.6,: 19.300 €
,: 1598 Cm3,2016-02-09 20:46:48.171004,: 116 CV - 85 kW,: Gris,: Diesel,http://www.luxauto.lu/fr/occasion/audi-a1-sportback-16-tdi-115-sport.html?id=754939&page=12,: 03-2015,: 4.780 km,VENDEUR PROFESSIONNEL,Audi,Sport,":,00352.400707-231","78-90, Route de Thionville,L-2610 Luxembourg",: 5,: Manuelle,: ,A1,Sportback 1.6,: 19.900 €
,: 1597 Cm3,2016-02-09 20:46:48.570062,: 116 CV - 85 kW,: Rouge,: Diesel,http://www.luxauto.lu/fr/occasion/audi-a1-sportback-16-tdi-115-sport.html?id=732432&page=12,: 00-,:  km,VENDEUR PROFESSIONNEL,Audi,Sport,":,00352.958148","32, route d'Erpeldange,L-9518 Weidingen-Wiltz",: 5,: Manuelle,: Noir,A1,Sportback 1.6,: 24.200 €
,: 1598 Cm3,2016-02-09 20:46:48.800181,: 116 CV - 85 kW,: Gris foncé,: Diesel,http://www.luxauto.lu/fr/occasion/audi-a1-sportback-16-tdi-115-s-tronic.html?id=727696&page=12,: 06-2015,: 3.500 km,VENDEUR PROFESSIONNEL,Audi,S-Tronic,":,00352.958148","32, route d'Erpeldange,L-9518 Weidingen-Wiltz",: 5,: Automatique,: Noir,A1,Sportback 1.6,: 24.900 €
,: 1598 Cm3,2016-02-09 20:46:49.464129,: 116 CV - 85 kW,: Blanc,: Diesel,http://www.luxauto.lu/fr/occasion/audi-a1-sportback-16-tdi-115-design.html?id=766187&page=12,: 01-2016,: 50 km,VENDEUR PROFESSIONNEL,Audi,Design,":,00352.398945","Rue de Koerich, 60,L-8437 Steinfort",: 5,: Manuelle,: Noir,A1,Sportback 1.6,: 19.200 €
,: 1598 Cm3,2016-02-09 20:46:50.107877,: 90 CV - 66 kW,: Argent,: Diesel,http://www.luxauto.lu/fr/occasion/audi-a1-sportback-16-tdi-90-attraction.html?id=756859&page=12,: 10-2015,: 2.000 km,VENDEUR PROFESSIONNEL,Audi,Attraction,":,00352.555312420","1-2, An der Schmelz,L-4280 Esch-sur-Alzette",: 5,: Manuelle,: ,A1,Sportback 1.6,: 20.980 €
,: 1598 Cm3,2016-02-09 20:46:50.857735,: 90 CV - 66 kW,: Noir,: Diesel,http://www.luxauto.lu/fr/occasion/audi-a1-sportback-16-tdi-90-ambition.html?id=770057&page=12,: 12-2012,: 65.161 km,VENDEUR PROFESSIONNEL,Audi,Ambition,":,00352.404411-259","Z.A Am Bann - 7, rue Nicolas Brosius,L-3372 Leudelange",: 5,: Manuelle,: Noir,A1,Sportback 1.6,: 13.790 €
,: 1598 Cm3,2016-02-09 20:46:51.012485,: 90 CV - 66 kW,: Noir,: Diesel,http://www.luxauto.lu/fr/occasion/audi-a1-sportback-16-tdi-90-ambition.html?id=766871&page=12,: 01-2013,: 62.900 km,VENDEUR PROFESSIONNEL,Audi,Ambition,":,00352.621.359.272","8, Rue Jean-Pierre Molitor,L-5670 Altwies",: 5,: Manuelle,: Noir,A1,Sportback 1.6,: 14.490 €
,: 1598 Cm3,2016-02-09 20:46:51.177310,: 90 CV - 66 kW,: Noir,: Diesel,http://www.luxauto.lu/fr/occasion/audi-a1-sportback-16-tdi-90-ambition.html?id=764161&page=12,: 11-2012,: 62.200 km,VENDEUR PROFESSIONNEL,Audi,Ambition,":,00352.691.430917","8 rue des artisans,L-3895 Foetz",: 5,: Manuelle,: ,A1,Sportback 1.6,: 13.990 €
,: 1598 Cm3,2016-02-09 20:46:51.325677,: 90 CV - 66 kW,: Noir,: Diesel,http://www.luxauto.lu/fr/occasion/audi-a1-sportback-16-tdi-90-ambition.html?id=761012&page=12,: 11-2012,: 66.990 km,VENDEUR PROFESSIONNEL,Audi,Ambition,":,00352.691.838389","161, Rue du Kiem,L-8030 Strassen",: 5,: Manuelle,: Noir,A1,Sportback 1.6,: 14.990 €
,: 1598 Cm3,2016-02-09 20:46:51.726728,: 90 CV - 66 kW,: Noir,: Diesel,http://www.luxauto.lu/fr/occasion/audi-a1-sportback-16-tdi-90-ambition.html?id=756984&page=12,: 11-2012,: 92.000 km,VENDEUR PROFESSIONNEL,Audi,Ambition,":,00352.691.838389","161, Rue du Kiem,L-8030 Strassen",: 5,: Manuelle,: Noir,A1,Sportback 1.6,: 13.990 €
,: 1598 Cm3,2016-02-09 20:46:52.725709,: 90 CV - 66 kW,: Noir,: Diesel,http://www.luxauto.lu/fr/occasion/audi-a1-sportback-16-tdi-90-ambition.html?id=756800&page=12,: 10-2012,: 94.500 km,VENDEUR PROFESSIONNEL,Audi,Ambition,":,00352.691.707017","20, rue Joseph Kieffer,L-4176 Esch-sur-Alzette",: 5,: Manuelle,: Noir,A1,Sportback 1.6,: 13.990 €
,: 1598 Cm3,2016-02-09 20:46:52.792365,: 90 CV - 66 kW,: Noir,: Diesel,http://www.luxauto.lu/fr/occasion/audi-a1-sportback-16-tdi-90-attraction.html?id=760883&page=13,: 09-2014,: 20.320 km,VENDEUR PROFESSIONNEL,Audi,Attraction,":,00352.3959011","408, Route de Longwy,L-4832 Rodange",: 5,: Manuelle,: Noir,A1,Sportback 1.6,: 17.500 €
,: 1395 Cm3,2016-02-09 20:46:53.022053,: 140 CV - 103 kW,: Bleu,: Essence,http://www.luxauto.lu/fr/occasion/audi-a3-14-tfsi-ambition-s-tronic.html?id=706717&page=13,: 02-2015,: 15.955 km,VENDEUR PROFESSIONNEL,Audi,S-Tronic,":,00352.555312420","1-2, An der Schmelz,L-4280 Esch-sur-Alzette",: 3,: Automatique,: Noir,A3,1.4 TFSi,: 26.980 €
,: 1395 Cm3,2016-02-09 20:46:53.209021,: 125 CV - 92 kW,: ,: Essence,http://www.luxauto.lu/fr/occasion/audi-a3-14-tfsi-ambition.html?id=744583&page=13,: 00-2015,: 27.500 km,VENDEUR PROFESSIONNEL,Audi,Ambition,":,00352.691.690012","14, rue du Bois,L-3980 Wickrange",: 3,: Manuelle,: Anthracite,A3,1.4 TFSi,: 23.960 €
,: 1395 Cm3,2016-02-09 20:46:53.704241,: 122 CV - 90 kW,: Brun,: Essence,http://www.luxauto.lu/fr/occasion/audi-a3-14-tfsi-ambiente.html?id=764043&page=13,: 11-2012,: 33.000 km,VENDEUR PRIVÉ,Audi,Ambiente,":,00352.691.286074",Luxembourg,: 3,: Manuelle,: Beige,A3,1.4 TFSi,: 18.500 €
,: 1197 Cm3,2016-02-09 20:46:54.000327,: 110 CV - 81 kW,: ,: Essence,http://www.luxauto.lu/fr/occasion/audi-a3-12-tfsi-s-line.html?id=744581&page=13,: 00-2015,: 28.600 km,VENDEUR PROFESSIONNEL,Audi,S-Line,":,00352.691.690012","14, rue du Bois,L-3980 Wickrange",: 3,: Manuelle,: Noir,A3,1.2 TFSi,: 22.990 €
,: 1197 Cm3,2016-02-09 20:46:54.209693,: 105 CV - 77 kW,: Brun,: Essence,http://www.luxauto.lu/fr/occasion/audi-a3-12-tfsi.html?id=770171&page=13,: 10-2010,: 72.100 km,VENDEUR PRIVÉ,Audi,,":,00352.621.769516",Echternach,: 3,: Manuelle,: Noir,A3,1.2 TFSi,: 10.500 €
,: 1422 Cm3,2016-02-09 20:46:54.794236,: 75 CV - 55 kW,: Noir,: Diesel,http://www.luxauto.lu/fr/occasion/audi-a2-14-tdi-75.html?id=765452&page=13,: 06-2001,: 240.000 km,VENDEUR PRIVÉ,Audi,75,":,00352.621.309774","30, Rue Raoul Follereau,L-1529 Luxembourg",: 5,: Manuelle,: Bordeaux,A2,1.4 Tdi,: 3.900 €
,: 1968 Cm3,2016-02-09 20:46:55.077210,: 143 CV - 105 kW,: Blanc,: Diesel,http://www.luxauto.lu/fr/occasion/audi-a1-sportback-20-tdi-143-amplified.html?id=757570&page=13,: 02-2014,: 14.500 km,VENDEUR PRIVÉ,Audi,Amplified,":,0049.1788060469",D-66740 Saarlouis,: 5,: Manuelle,: Noir,A1,Sportback 2.0,: 24.250 €
,: 1598 Cm3,2016-02-09 20:46:55.545687,: 90 CV - 66 kW,: Blanc,: Diesel,http://www.luxauto.lu/fr/occasion/audi-a1-sportback-16-tdi-90-s-line.html?id=762672&page=13,: 11-2013,: 40.000 km,VENDEUR PRIVÉ,Audi,S-Line,":,0032.497.768085",B-4970 Francorchamps,: 5,: Manuelle,: Noir,A1,Sportback 1.6,: 16.000 €
,: 1598 Cm3,2016-02-09 20:46:56.212498,: 110 CV - 81 kW,: Blanc,: Diesel,http://www.luxauto.lu/fr/occasion/audi-a3-16-tdi-110.html?id=766142&page=13,: 00-2016,: 0 km,VENDEUR PROFESSIONNEL,Audi,110,":,00352.889494","5, Zone Industrielle,L-9166 Mertzig",: 3,: Manuelle,: Noir,A3,1.6 Tdi,: 24.990 €
,: 1598 Cm3,2016-02-09 20:46:56.822180,: 105 CV - 77 kW,: Gris clair,: Diesel,http://www.luxauto.lu/fr/occasion/audi-a3-16-tdi-105-attraction.html?id=762415&page=13,: 07-2010,: 95.000 km,VENDEUR PRIVÉ,Audi,Attraction,":,00352.621.454545",Walferdange,: 3,: Automatique,: Noir,A3,1.6 Tdi,: 16.500 €
,: 1598 Cm3,2016-02-09 20:46:57.182708,: 105 CV - 77 kW,: Blanc,: Diesel,http://www.luxauto.lu/fr/occasion/audi-a3-16-tdi-105-ambition.html?id=761380&page=13,: 09-2013,: 35.176 km,VENDEUR PROFESSIONNEL,Audi,Ambition,":,0033.3.82246197","1b, rue Jean Racine,F-54190 Tiercelet",: 3,: Manuelle,: ,A3,1.6 Tdi,: 20.900 €
,: 1598 Cm3,2016-02-09 20:46:57.630368,: 105 CV - 77 kW,: Gris foncé,: Diesel,http://www.luxauto.lu/fr/occasion/audi-a3-16-tdi-105-ambiente.html?id=769433&page=13,: 03-2013,: 58.200 km,VENDEUR PRIVÉ,Audi,Ambiente,":,0033.6.59519162",F-57655 Boulange,: 3,: Manuelle,: Gris foncé,A3,1.6 Tdi,: 16.000 €
,: 1598 Cm3,2016-02-09 20:46:58.286365,: 105 CV - 77 kW,: Bleu clair,: Diesel,http://www.luxauto.lu/fr/occasion/audi-a3-16-tdi-105.html?id=770112&page=13,: 09-2009,: 138.500 km,VENDEUR PRIVÉ,Audi,105,":,00352.621.220135",Lintgen,: 3,: Manuelle,: Noir,A3,1.6 Tdi,: 10.500 €
,: 1598 Cm3,2016-02-09 20:46:58.552415,: 105 CV - 77 kW,: Blanc,: Diesel,http://www.luxauto.lu/fr/occasion/audi-a3-16-tdi-105.html?id=758009&page=13,: 03-2010,: 142.000 km,VENDEUR PROFESSIONNEL,Audi,105,":,00352.26652607","21, Rue Robert Krieps,L-4702 Pétange",: 3,: Manuelle,: Noir,A3,1.6 Tdi,: 13.900 €
,: 1595 Cm3,2016-02-09 20:46:58.708212,: 102 CV - 75 kW,: Bleu foncé,: Essence,http://www.luxauto.lu/fr/occasion/audi-a3-16.html?id=770436&page=13,: 04-2001,: 196.000 km,VENDEUR PRIVÉ,Audi,,":,00352.621.310923",Dudelange,: 3,: Manuelle,: Noir,A3,1.6,: 3.800 €
,: 1595 Cm3,2016-02-09 20:46:58.983809,: 102 CV - 75 kW,: Noir,: Essence,http://www.luxauto.lu/fr/occasion/audi-a3-16.html?id=769944&page=13,: 11-2000,: 217.000 km,VENDEUR PROFESSIONNEL,Audi,,":,00352.691.198579","1, Feldstross,L-5683 Dalheim",: 3,: Manuelle,: Noir,A3,1.6,: 2.450 €
,: 1595 Cm3,2016-02-09 20:46:59.335781,: 102 CV - 75 kW,: Gris clair,: Essence,http://www.luxauto.lu/fr/occasion/audi-a3-16.html?id=769929&page=13,: 02-2003,: 140.000 km,VENDEUR PROFESSIONNEL,Audi,,":,00352.691.198579","1, Feldstross,L-5683 Dalheim",: 5,: Manuelle,: Noir,A3,1.6,: 3.450 €
,: 159